simulation/qsim/ARP.msim.vcd
$comment
	File created using the following command:
		vcd file ARP.msim.vcd -direction
$end
$date
	Wed Feb 08 17:54:55 2023
$end
$version
	ModelSim Version 10.1d
$end
$timescale
	1ps
$end
$scope module cmp32s_vlg_vec_tst $end
$var reg 32 ! A [31:0] $end
$var reg 32 " B [31:0] $end
$var wire 1 # E $end
$var wire 1 $ G $end
$var wire 1 % L $end
$var wire 1 & sampler $end
$scope module i1 $end
$var wire 1 ' gnd $end
$var wire 1 ( vcc $end
$var wire 1 ) unknown $end
$var tri1 1 * devclrn $end
$var tri1 1 + devpor $end
$var tri1 1 , devoe $end
$var wire 1 - E~output_o $end
$var wire 1 . L~output_o $end
$var wire 1 / G~output_o $end
$var wire 1 0 A[24]~input_o $end
$var wire 1 1 B[24]~input_o $end
$var wire 1 2 B[25]~input_o $end
$var wire 1 3 A[25]~input_o $end
$var wire 1 4 B[27]~input_o $end
$var wire 1 5 B[26]~input_o $end
$var wire 1 6 A[26]~input_o $end
$var wire 1 7 A[27]~input_o $end
$var wire 1 8 inst|inst1|inst3|inst|inst19~0_combout $end
$var wire 1 9 inst|inst1|inst3|inst|inst19~1_combout $end
$var wire 1 : inst|inst1|inst3|inst|inst19~2_combout $end
$var wire 1 ; B[21]~input_o $end
$var wire 1 < B[22]~input_o $end
$var wire 1 = B[23]~input_o $end
$var wire 1 > A[22]~input_o $end
$var wire 1 ? A[23]~input_o $end
$var wire 1 @ inst|inst1|inst2|inst1|inst19~0_combout $end
$var wire 1 A B[20]~input_o $end
$var wire 1 B A[20]~input_o $end
$var wire 1 C inst|inst1|inst2|inst1|inst12~0_combout $end
$var wire 1 D A[21]~input_o $end
$var wire 1 E inst|inst1|inst2|inst1|inst19~1_combout $end
$var wire 1 F B[12]~input_o $end
$var wire 1 G A[12]~input_o $end
$var wire 1 H inst|inst|inst3|inst1|inst12~0_combout $end
$var wire 1 I A[1]~input_o $end
$var wire 1 J B[1]~input_o $end
$var wire 1 K A[0]~input_o $end
$var wire 1 L B[0]~input_o $end
$var wire 1 M inst|inst|inst2|inst|inst12~0_combout $end
$var wire 1 N B[2]~input_o $end
$var wire 1 O A[3]~input_o $end
$var wire 1 P B[3]~input_o $end
$var wire 1 Q A[2]~input_o $end
$var wire 1 R inst|inst|inst2|inst|inst19~0_combout $end
$var wire 1 S inst|inst|inst2|inst|inst19~combout $end
$var wire 1 T A[5]~input_o $end
$var wire 1 U B[5]~input_o $end
$var wire 1 V inst|inst|inst2|inst1|inst13~0_combout $end
$var wire 1 W B[4]~input_o $end
$var wire 1 X A[4]~input_o $end
$var wire 1 Y B[6]~input_o $end
$var wire 1 Z A[7]~input_o $end
$var wire 1 [ B[7]~input_o $end
$var wire 1 \ A[6]~input_o $end
$var wire 1 ] inst|inst|inst2|inst1|inst19~0_combout $end
$var wire 1 ^ inst|inst|inst2|inst1|inst19~1_combout $end
$var wire 1 _ A[9]~input_o $end
$var wire 1 ` B[9]~input_o $end
$var wire 1 a A[10]~input_o $end
$var wire 1 b B[11]~input_o $end
$var wire 1 c B[10]~input_o $end
$var wire 1 d A[11]~input_o $end
$var wire 1 e inst|inst|inst3|inst|inst19~0_combout $end
$var wire 1 f inst|inst|inst3|inst|inst19~1_combout $end
$var wire 1 g B[8]~input_o $end
$var wire 1 h A[8]~input_o $end
$var wire 1 i inst|inst|inst3|inst|inst12~0_combout $end
$var wire 1 j inst|inst|inst3|inst|inst19~combout $end
$var wire 1 k A[17]~input_o $end
$var wire 1 l B[18]~input_o $end
$var wire 1 m B[19]~input_o $end
$var wire 1 n A[18]~input_o $end
$var wire 1 o A[19]~input_o $end
$var wire 1 p inst|inst1|inst2|inst|inst19~0_combout $end
$var wire 1 q B[17]~input_o $end
$var wire 1 r A[16]~input_o $end
$var wire 1 s B[16]~input_o $end
$var wire 1 t inst|inst1|inst2|inst|inst12~0_combout $end
$var wire 1 u inst|inst1|inst2|inst|inst19~1_combout $end
$var wire 1 v B[15]~input_o $end
$var wire 1 w A[14]~input_o $end
$var wire 1 x A[15]~input_o $end
$var wire 1 y B[14]~input_o $end
$var wire 1 z inst|inst|inst3|inst1|inst19~0_combout $end
$var wire 1 { A[13]~input_o $end
$var wire 1 | B[13]~input_o $end
$var wire 1 } inst|inst|inst3|inst1|inst19~1_combout $end
$var wire 1 ~ inst|inst1|inst2|inst|inst19~combout $end
$var wire 1 !! B[30]~input_o $end
$var wire 1 "! B[29]~input_o $end
$var wire 1 #! A[29]~input_o $end
$var wire 1 $! A[30]~input_o $end
$var wire 1 %! inst|inst1|inst3|inst1|inst19~0_combout $end
$var wire 1 &! B[28]~input_o $end
$var wire 1 '! A[28]~input_o $end
$var wire 1 (! inst|inst1|inst3|inst1|inst19~1_combout $end
$var wire 1 )! inst|inst1|inst3|inst1|inst19~combout $end
$var wire 1 *! B[31]~input_o $end
$var wire 1 +! inst12|inst~0_combout $end
$var wire 1 ,! inst12|inst~1_combout $end
$var wire 1 -! A[31]~input_o $end
$var wire 1 .! inst12|inst~2_combout $end
$var wire 1 /! inst|inst1|inst2|inst1|inst19~2_combout $end
$var wire 1 0! inst|inst1|inst2|inst1|inst28~0_combout $end
$var wire 1 1! inst|inst1|inst2|inst1|inst31~0_combout $end
$var wire 1 2! inst|inst1|inst2|inst1|inst31~1_combout $end
$var wire 1 3! inst|inst1|inst2|inst|inst3~combout $end
$var wire 1 4! inst|inst1|inst2|inst|inst29~0_combout $end
$var wire 1 5! inst|inst1|inst2|inst1|inst31~2_combout $end
$var wire 1 6! inst|inst1|inst3|inst|inst29~0_combout $end
$var wire 1 7! inst|inst1|inst3|inst1|inst28~0_combout $end
$var wire 1 8! inst|inst1|inst3|inst1|inst31~0_combout $end
$var wire 1 9! inst|inst1|inst3|inst1|inst31~1_combout $end
$var wire 1 :! inst|inst1|inst3|inst1|inst31~2_combout $end
$var wire 1 ;! inst|inst1|inst3|inst|inst28~1_combout $end
$var wire 1 <! inst|inst1|inst3|inst|inst28~2_combout $end
$var wire 1 =! inst|inst1|inst3|inst|inst28~0_combout $end
$var wire 1 >! inst|inst1|inst2|inst1|inst29~0_combout $end
$var wire 1 ?! inst|inst1|inst3|inst|inst28~3_combout $end
$var wire 1 @! inst|inst|inst2|inst1|inst19~2_combout $end
$var wire 1 A! inst|inst|inst3|inst|inst28~2_combout $end
$var wire 1 B! inst|inst|inst3|inst|inst28~3_combout $end
$var wire 1 C! inst|inst|inst3|inst|inst28~0_combout $end
$var wire 1 D! inst|inst|inst3|inst|inst28~1_combout $end
$var wire 1 E! inst|inst|inst2|inst1|inst31~0_combout $end
$var wire 1 F! inst|inst|inst2|inst1|inst31~1_combout $end
$var wire 1 G! inst|inst|inst2|inst1|inst28~0_combout $end
$var wire 1 H! inst|inst|inst2|inst|inst3~combout $end
$var wire 1 I! inst|inst|inst2|inst|inst29~0_combout $end
$var wire 1 J! inst|inst|inst2|inst1|inst31~2_combout $end
$var wire 1 K! inst|inst|inst3|inst1|inst28~0_combout $end
$var wire 1 L! inst|inst|inst3|inst1|inst31~3_combout $end
$var wire 1 M! inst|inst|inst3|inst1|inst31~0_combout $end
$var wire 1 N! inst|inst|inst3|inst1|inst31~1_combout $end
$var wire 1 O! inst|inst|inst3|inst1|inst31~2_combout $end
$var wire 1 P! inst|inst1|inst2|inst|inst28~1_combout $end
$var wire 1 Q! inst|inst1|inst2|inst|inst28~2_combout $end
$var wire 1 R! inst|inst1|inst2|inst|inst28~3_combout $end
$var wire 1 S! inst|inst1|inst2|inst|inst28~0_combout $end
$var wire 1 T! inst|inst1|inst2|inst|inst28~combout $end
$var wire 1 U! inst|inst1|inst3|inst1|inst31~combout $end
$var wire 1 V! inst12|inst~3_combout $end
$var wire 1 W! inst11|inst~0_combout $end
$var wire 1 X! inst11|inst~1_combout $end
$var wire 1 Y! inst11|inst~2_combout $end
$var wire 1 Z! inst|inst1|inst2|inst1|inst28~1_combout $end
$var wire 1 [! inst|inst1|inst2|inst1|inst28~2_combout $end
$var wire 1 \! inst|inst1|inst2|inst1|inst28~3_combout $end
$var wire 1 ]! inst|inst1|inst3|inst1|inst28~1_combout $end
$var wire 1 ^! inst|inst1|inst3|inst1|inst28~2_combout $end
$var wire 1 _! inst|inst1|inst3|inst1|inst28~3_combout $end
$var wire 1 `! inst|inst1|inst3|inst|inst31~0_combout $end
$var wire 1 a! inst|inst1|inst3|inst|inst31~1_combout $end
$var wire 1 b! inst|inst1|inst3|inst|inst31~2_combout $end
$var wire 1 c! inst|inst|inst3|inst|inst31~2_combout $end
$var wire 1 d! inst|inst|inst2|inst1|inst28~1_combout $end
$var wire 1 e! inst|inst|inst2|inst1|inst28~2_combout $end
$var wire 1 f! inst|inst|inst2|inst1|inst28~3_combout $end
$var wire 1 g! inst|inst|inst3|inst|inst31~0_combout $end
$var wire 1 h! inst|inst|inst3|inst|inst31~1_combout $end
$var wire 1 i! inst|inst|inst3|inst1|inst28~4_combout $end
$var wire 1 j! inst|inst1|inst2|inst|inst31~0_combout $end
$var wire 1 k! inst|inst1|inst2|inst|inst31~1_combout $end
$var wire 1 l! inst|inst1|inst2|inst|inst31~2_combout $end
$var wire 1 m! inst|inst|inst3|inst1|inst28~1_combout $end
$var wire 1 n! inst|inst|inst3|inst1|inst28~2_combout $end
$var wire 1 o! inst|inst|inst3|inst1|inst28~3_combout $end
$var wire 1 p! inst|inst1|inst2|inst|inst31~combout $end
$var wire 1 q! inst|inst1|inst3|inst1|inst28~combout $end
$var wire 1 r! inst11|inst~3_combout $end
$upscope $end
$upscope $end
$enddefinitions $end
#0
$dumpvars
b10110000010100000111001111111101 !
b1001111110101001011111101100000 "
0#
0$
1%
x&
0'
1(
x)
1*
1+
1,
0-
1.
0/
00
11
12
03
14
15
06
07
08
09
0:
0;
1<
1=
1>
0?
0@
1A
1B
0C
0D
0E
1F
1G
0H
0I
0J
1K
0L
1M
0N
1O
0P
1Q
0R
0S
1T
1U
0V
0W
1X
1Y
1Z
0[
1\
0]
0^
1_
1`
0a
1b
1c
0d
0e
0f
1g
1h
0i
0j
0k
1l
0m
0n
0o
0p
0q
0r
0s
0t
0u
1v
1w
0x
0y
0z
1{
1|
0}
0~
1!!
0"!
1#!
0$!
0%!
0&!
1'!
0(!
0)!
0*!
1+!
1,!
1-!
0.!
0/!
00!
01!
02!
03!
04!
05!
06!
07!
08!
09!
0:!
1;!
1<!
0=!
0>!
0?!
0@!
0A!
0B!
0C!
0D!
1E!
1F!
0G!
0H!
0I!
0J!
0K!
0L!
0M!
0N!
0O!
1P!
1Q!
1R!
0S!
0T!
0U!
1V!
0W!
0X!
0Y!
1Z!
1[!
0\!
1]!
1^!
0_!
0`!
0a!
0b!
0c!
0d!
0e!
0f!
1g!
1h!
0i!
0j!
0k!
0l!
1m!
1n!
1o!
0p!
0q!
0r!
$end
#10000
b10100000010100000111001111111101 !
b10101000010100000111001111111101 !
b10101100010100000111001111111101 !
b10101101010100000111001111111101 !
b10101101010110000111001111111101 !
b10101101010110100111001111111101 !
b10101101010110101111001111111101 !
b10101101010110101110001111111101 !
b10101101010110101110000111111101 !
b10101101010110101110000110111101 !
b10101101010110101110000110110101 !
b10101101010110101110000110110001 !
b10101101010110101110000110110011 !
b10101101010110101110000110110010 !
b1101111110101001011111101100000 "
b1101011110101001011111101100000 "
b1101001110101001011111101100000 "
b1101001010101001011111101100000 "
b1101001000101001011111101100000 "
b1101001000001001011111101100000 "
b1101001000000001011111101100000 "
b1101001000000101011111101100000 "
b1101001000000100011111101100000 "
b1101001000000100001111101100000 "
b1101001000000100000111101100000 "
b1101001000000100000110101100000 "
b1101001000000100000110001100000 "
b1101001000000100000110001101000 "
b1101001000000100000110001101100 "
1N
1P
0g
0`
0F
0|
0v
1q
0l
0A
0<
0=
02
05
1"!
0K
1I
0Q
0O
0\
0_
0G
1x
1k
1o
10
16
17
0'!
0&
1d!
0E!
1i
1j!
0P!
0Z!
11!
1C
1`!
0;!
0]!
18!
0M
1e!
0F!
1k!
0Q!
0[!
12!
1a!
0<!
0^!
19!
1l!
0R!
#20000
b11101101010110101110000110110010 !
b11001101010110101110000110110010 !
b11001101110110101110000110110010 !
b11001101110111101110000110110010 !
b11001101110111101110100110110010 !
b11001101110111101110100110100010 !
b11101001000000100000110001101100 "
b10101001000000100000110001101100 "
b10101000000000100000110001101100 "
b10101000000000100100110001101100 "
b10101000000000100100110000101100 "
b10101000000000100100110000001100 "
b10101000000000100100110000011100 "
b10101000000000100100110000011110 "
b10101000000000100100110000011111 "
b11000101110111101110100110100010 !
b11000100110111101110100110100010 !
b11000100110101101110100110100010 !
b11000100110101100110100110100010 !
b11000100110101100111100110100010 !
b11000100110101100111101110100010 !
b11000100110101100111101111100010 !
b11000100110101100111101111100110 !
b11000100110101100111101111100100 !
b10001000000000100100110000011111 "
b10001000000100100100110000011111 "
b10001000000101100100110000011111 "
b10001000000101100110110000011111 "
b10001000000101100111110000011111 "
b10001000000101100111110100011111 "
b10001000000101100111110100010111 "
1L
1J
0P
1W
0U
0Y
1g
1F
1|
1y
1l
1A
01
0"!
0!!
1*!
0I
1Q
0X
1\
1_
1d
1G
0x
1n
0o
1?
00
07
0#!
1$!
1&
1M
1E!
1R
1V
0i
1P!
1z
1Z!
1p
0C
1W!
0+!
1.!
1]!
08!
0V!
1Q!
1}
1[!
14!
1u
1X!
0,!
1^!
09!
0.
0%
1V!
1R!
1S!
1K!
1Y!
0.!
1.
1%
1T!
1p!
1i!
1L!
1r!
0V!
0p!
1/
0.
1$
0%
#30000
b1000100110101100111101111100100 !
b1000110110101100111101111100100 !
b1000110110001100111101111100100 !
b1000110110001110111101111100100 !
b1000110110001110111111111100100 !
b1000110110001110111111111000100 !
b10000000000101100111110100010111 "
b10000000001101100111110100010111 "
b10000000001101100111010100010111 "
b10000000001101100111010110010111 "
b10000100001101100111010110010111 "
b10000100101101100111010110010111 "
b10000100111101100111010110010111 "
b10000100111101000111010110010111 "
b10000100111101001111010110010111 "
b10000100111101001111011110010111 "
b110110001110111111111000100 !
b100110110001110111111111000100 !
b100110110001110111011111000100 !
b100110110001110111011111010100 !
b10000101111101001111011110010111 "
b10000101111101001011011110010111 "
b10000101111101001011011110000111 "
b10000101111101001011011110000101 "
b100111110001110111011111010100 !
b100111110001111111011111010100 !
b100111110001111111011110010100 !
b100111110001111111011110010000 !
b10000101111001001011011110000101 "
b10000101111000001011011110000101 "
b10000101111000001001011110000101 "
b10000101111000001000011110000101 "
b10000101111000001000011110001101 "
0J
1P
0W
1[
1`
0b
0F
0|
0y
1v
0q
0l
0A
1;
1<
1=
11
15
04
0Q
1X
0T
0\
1a
0d
1x
1r
0B
10
13
1#!
0$!
0-!
0&
1I!
1F!
0E!
0R
1C!
1]
1M!
1e
0R!
0K!
1H
0Q!
0}
0P!
0z
0[!
04!
0u
0Z!
0p
1;!
1@
18!
18
0V
1t
0Y!
0F!
0I!
1D!
1@!
1N!
1f
0T!
0i!
0L!
0S!
1<!
0a!
19!
0^!
1O!
1A!
1c!
#40000
b100111111001111111011110010000 !
b10000101111000011000011110001101 "
b110111111001111111011110010000 !
b110011111001111111011110010000 !
b110011111001011111011110010000 !
b110011111001011111011110011000 !
b110011111001011111011110011001 !
b110011011001011111011110011001 !
b11000101111000011000011110001101 "
b11000101111000011000011111001101 "
b11000101111000011000011111001100 "
b111011011001011111011110011001 !
b111011011001011110011110011001 !
b111011011001011110010110011001 !
b111011011001011110010110011011 !
b11100101111000011000011111001100 "
b11100101111000011000011011001100 "
b10111011011001011110010110011011 !
b10111001011001011110010110011011 !
b10111001011101011110010110011011 !
b10111001011101011110010110111011 !
b11101101111000011000011011001100 "
b11101101110000011000011011001100 "
b11101101110000011000111011001100 "
b11101001110000011000111011001100 "
b11101001010000011000111011001100 "
b11101001000000011000111011001100 "
b11101001000000111000111011001100 "
b11101001000000110000111011001100 "
b11101001000000110000110011001100 "
b11111001011101011110010110111011 !
b11011001011101011110010110111011 !
b11011001011101011110010110101011 !
b11101001000000110100110011001100 "
b11011001011101010110010110101011 !
b11011001011101010110010111101011 !
b11101001000100110100110011001100 "
b11101001000101110100110011001100 "
b11101001000101110100110011000100 "
0L
0P
1Y
0g
0`
1b
1y
0v
1s
1q
1l
1A
0;
0<
0=
05
14
1"!
1!!
1K
1I
1O
0X
1T
1\
0_
0G
0x
0k
1B
1D
0?
03
06
17
1'!
0#!
1$!
1-!
1&
0d!
1E!
0o!
1i
0M!
0e
1P!
1z
13!
0t
1Z!
1p
1a!
0<!
0;!
0@
0W!
1+!
1B!
1^
0D!
0@!
1V
0H
1^!
19
1Y!
0r!
0e!
1F!
0A!
0N!
0f
1[!
02!
0X!
1,!
1G!
0^
1:
0/
0$
1r!
1J!
0c!
0B!
0O!
1o!
0Y!
1.!
0G!
1=!
1/
1$
0J!
1b!
0r!
1V!
0/
1.
0$
1%
#50000
b11011001011101010010010111101011 !
b11011001011101010000010111101011 !
b11111001000101110100110011000100 "
b11111001000111110100110011000100 "
b11111001000111110100100011000100 "
b11111011000111110100100011000100 "
b1111011000111110100100011000100 "
b11011001011111010000010111101011 !
b11011001011111000000010111101011 !
b11011001011111000000000111101011 !
b11011001011111000000100111101011 !
b1111010000111110100100011000100 "
b1111010000111110100100011000110 "
b11011000011111000000100111101011 !
b11011000011111000000100111101111 !
b1111010000111110110100011000110 "
b1111010000111110111100011000110 "
b11011000011111100000100111101111 !
b11011000011111100000100111101110 !
b1111010000111110111100011000111 "
b11010000011111100000100111101110 !
b11010000011111100001100111101110 !
b11010000011111100001101111101110 !
b11010000011111100001101111101100 !
b1010000011111100001101111101100 !
b1010000011011100001101111101100 !
b1010000011011100001101111001100 !
b1110010000111110111100011000111 "
b1110010010111110111100011000111 "
b1110000011011100001101111001100 !
b1110000011011100001101111011100 !
b1110010010111110011100011000111 "
b1110000011011100001101110011100 !
b1110010010110110011100011000111 "
b1110010010110110011100011001111 "
1L
1J
1P
0c
1F
1|
0y
0l
1m
1<
01
12
04
1&!
0*!
0K
0I
1Q
1X
0T
0\
1_
0a
1d
1G
0{
0w
0r
1k
1o
0B
00
07
1#!
0-!
0&
1d!
1R
1M!
1e
0k!
1Q!
0Z!
0p
1;!
1@
16!
09!
09
1D!
1@!
0V
0g!
0]
03!
1t
12!
1u
1C
1W!
1%!
1e!
0F!
1N!
0n!
0l!
1R!
0[!
0u
06!
0:
0h!
0@!
1S!
1X!
1(!
1O!
0o!
1T!
0S!
0=!
17!
1Y!
0T!
0b!
1_!
1r!
1q!
1/
1$
0r!
0/
0$
#60000
b1110000001011100001101110011100 !
b1110000001010100001101110011100 !
b1110010010110110011100011101111 "
b1110010010110110011100001101111 "
b1100000001010100001101110011100 !
b1100000101010100001101110011100 !
b1010010010110110011100001101111 "
b1010010010110110011100101101111 "
b1100010101010100001101110011100 !
b1010010011110110011100101101111 "
b1010010111110110011100101101111 "
b1010010111110010011100101101111 "
b1100010101010101001101110011100 !
b1010010111010010011100101101111 "
b1100010101010101011101110011100 !
b1000010111010010011100101101111 "
b1000010111010010011110101101111 "
b11000010111010010011110101101111 "
b1100010101010101011111110011100 !
b1100010101010101011011110011100 !
b11000011111010010011110101101111 "
b11000011111010010011110101101101 "
b1100011101010101011011110011100 !
b1100011101010101011011110011000 !
b11000011111010010001110101101101 "
b11000011111010010000110101101101 "
b1100011101110101011011110011000 !
b11000011101010010000110101101101 "
b1100011101110101011011110001000 !
b1100011101110101011011111001000 !
b11000011101011010000110101101101 "
b11000011101011010000110101100101 "
0J
0P
1U
0[
1g
1c
0F
0|
0q
1l
0A
1;
0<
1=
11
0&!
0"!
1*!
0Q
0X
1\
1a
0d
1{
1x
0n
1B
0>
1?
10
13
0'!
1&
1I!
1F!
0d!
0R
1V
1g!
0C!
0i
0M!
0e
1H
1k!
0Q!
1Z!
01!
1<!
1/!
0+!
0%!
0Y!
0.!
0P!
0z
19!
19
1r!
0e!
0I!
1h!
0D!
0N!
1n!
1l!
0R!
1[!
02!
1>!
0,!
0(!
1:!
1:
1/
1$
0V!
0O!
1o!
07!
1U!
1=!
0.
0%
0_!
0:!
1b!
0q!
0U!
#70000
b1100011101110101011011101001000 !
b11000011101011010000110101110101 "
b11000011101011000000110101110101 "
b11000011101011000000010101110101 "
b11000111101011000000010101110101 "
b11000111101011000000011101110101 "
b1100011101110101111011101001000 !
b11000101101011000000011101110101 "
b1100011101100101111011101001000 !
b1100011101100111111011101001000 !
b1100011101100011111011101001000 !
b1100011101100011111011101001001 !
b1100011101100011110011101001001 !
b1100011101100011110011101001011 !
b1100011101100011110011101101011 !
b11000101101011000000011101010101 "
b11000101101011000000011111010101 "
b1110011101100011110011101101011 !
b1110011101100010110011101101011 !
b11010101101011000000011111010101 "
b11010101101011000000001111010101 "
b1110011101100010110111101101011 !
b11010100101011000000001111010101 "
b11010100101011000000001111010111 "
b1110010101100010110111101101011 !
b1110010101100010110111101101111 !
b11010100101011000010001111010111 "
b1110010101000010110111101101111 !
b1110010101000010110111100101111 !
1J
1W
0U
1[
1`
0c
0b
1|
0s
01
02
15
1&!
1K
1I
1Q
1T
0\
0Z
1d
0G
1w
0x
1r
0k
0o
0B
00
1'!
0&
0g!
1C!
0m!
1M!
16!
0^!
09
08!
08
1H!
0M
0H
1?!
10!
0C
0h!
1D!
0n!
1N!
06!
0:
09!
1^!
1\!
1E
0o!
1O!
0=!
0b!
0?!
#80000
b1110010101000010110111000101111 !
b11010100101011000010001111010011 "
b1110010100000010110111000101111 !
b11010100101011000010001110010011 "
b11010100101011001010001110010011 "
b110010100000010110111000101111 !
b111010100000010110111000101111 !
b111010100000010110110000101111 !
b11010100101011001110001110010011 "
b111010100001010110110000101111 !
b11110100101011001110001110010011 "
b11110100101011001110001010010011 "
b111000100001010110110000101111 !
b11110100101111001110001010010011 "
b111000100001010100110000101111 !
b1110100101111001110001010010011 "
b1110100111111001110001010010011 "
b1110100111110001110001010010011 "
b1110100111110001110001010011011 "
b111000100001010100110010101111 !
b1110100111110011110001010011011 "
b1110000111110011110001010011011 "
b1110010111110011110001010011011 "
b111000100001000100110010101111 !
b111000100001000100110010101110 !
b111000100001000100110010101100 !
b101000100001000100110010101100 !
b1110010111110011110011010011011 "
b101000100001000100010010101100 !
b1110011111110011110011010011011 "
b1110011111110011110011010011001 "
b101000100001000100010010101000 !
b101000100101000100010010101000 !
0J
0N
1P
0Y
0g
1c
1y
1v
1s
0l
1A
1<
11
12
05
1"!
0*!
0K
0I
0Q
1Z
0h
0_
0d
0{
0r
1n
1B
0D
03
17
0'!
0$!
1&
1d!
1R
1g!
1]
1m!
1e
0j!
1P!
0>!
0`!
0@
0]!
18!
0W!
1+!
1Y!
0H!
1M
0a!
0/!
0E
0r!
1e!
1I!
1h!
0D!
1n!
0N!
0k!
1Q!
0^!
19!
0X!
1,!
00!
0/
0$
1r!
1o!
0O!
0l!
1R!
0Y!
1.!
0\!
1/
1$
0r!
1V!
0/
1.
0$
1%
#90000
b101100100101000100010010101000 !
b101100100101000100010010100000 !
b110011111110011110011010011001 "
b10101100100101000100010010100000 !
b10001100100101000100010010100000 !
b10001100110101000100010010100000 !
b110011110110011110011010011001 "
b110011010110011110011010011001 "
b110011010110111110011010011001 "
b10001100110101000100000010100000 !
b110011010110111110011010001001 "
b110011010110111110010010001001 "
b10001100110111000100000010100000 !
b10001100110111100100000010100000 !
b10001100110111100101000010100000 !
b10001100110111101101000010100000 !
b110011010110111100010010001001 "
b10001100111111101101000010100000 !
b110011010110110100010010001001 "
b10000100111111101101000010100000 !
b110011010110110100010110001001 "
b10000110111111101101000010100000 !
b110111010110110100010110001001 "
b10000110111111101101000010100010 !
b10000110111111101101100010100010 !
0W
1g
0`
0|
0v
1q
0;
0=
15
0!!
1I
0O
0a
1d
1G
1x
1k
1o
1D
1>
13
16
07
0#!
1-!
0&
1i
1N!
1f
1j!
0P!
1`!
0;!
1]!
18
0e!
0I!
0E!
0R
0m!
0e
1H
0Z!
11!
0.!
1k!
0Q!
1a!
0<!
1^!
19
0F!
1e!
0n!
0f
0[!
12!
1l!
0R!
16!
0o!
1O!
#100000
b110111010100110100010110001001 "
b110111010100110100010110001000 "
b10000110011111101101100010100010 !
b110111010100110101010110001000 "
b110111010100110101110110001000 "
b10000110011111101001100010100010 !
b110111010100110101110110101000 "
b110111010100110101110100101000 "
b100111010100110101110100101000 "
b10000111011111101001100010100010 !
b10000111011111101001100011100010 !
b10000111011111101001100111100010 !
b11000111011111101001100111100010 !
b11000111011110101001100111100010 !
b111010100110101110100101000 "
b111010000110101110100101000 "
b11000111011110101011100111100010 !
b111010001110101110100101000 "
b11000111011110101011100101100010 !
b111010001100101110100101000 "
b101010001100101110100101000 "
b11010111011110101011100101100010 !
b11010111011110101011100101100110 !
b11010011011110101011100101100110 !
b1000101010001100101110100101000 "
b11110011011110101011100101100110 !
b11110011011110101011110101100110 !
b1000101010001100101110100111000 "
b1000101010001100101111100111000 "
b11110011011100101011110101100110 !
b11110011011100100011110101100110 !
b1000101010001100111111100111000 "
b1000101010001101111111100111000 "
b11110001011100100011110101100110 !
b1000001010001101111111100111000 "
b11110001011100100011110101100100 !
b11110001011100100011010101100100 !
0I
1Q
1\
0Z
1h
1a
0d
1{
0w
0x
0n
0o
0?
10
03
06
1'!
1#!
1$!
0L
1W
1U
0[
1`
1b
1F
1|
1v
0s
1l
0m
0A
02
05
0&!
0"!
1!!
1&
0C!
0]
0i
1m!
0M!
0j!
1P!
1Z!
01!
1;!
1@
06!
1:
1W!
0+!
0M
1D!
1@!
0V
0H
0t
1C
0D!
0@!
1n!
0N!
0k!
1Q!
1[!
02!
1=!
1X!
0,!
1o!
0O!
0l!
1R!
1b!
#110000
b1001001010001101111111100111000 "
b11110001011100100011010101000100 !
b1001001010001101111111100111100 "
b1001001000001101111111100111100 "
b1001001000001101111111100110100 "
b1001000000001101111111100110100 "
b1110001011100100011010101000100 !
b1001000001001101111111100110100 "
b1001000101001101111111100110100 "
b1001000101001001111111100110100 "
b1001000101011001111111100110100 "
b1001000101011001111111100010100 "
b1110001011100100011010001000100 !
b110001011100100011010001000100 !
b110001011101100011010001000100 !
b1101000101011001111111100010100 "
b1101000101111001111111100010100 "
b110001011101100001010001000100 !
b1101000101110001111111100010100 "
b110001011101100001010011000100 !
b1101000101110011111111100010100 "
b100001011101100001010011000100 !
b100001011101100001010011000000 !
b100101011101100001010011000000 !
b1101000101110011111111100000100 "
b1101000101110011111110100000100 "
b100101011111100001010011000000 !
b1101000101110011101110100000100 "
b100101011111100001010011000010 !
1I
0Q
0T
1Z
0h
0{
1n
1o
16
0'!
0$!
0-!
1N
0P
0W
0U
0`
0|
1s
0q
0l
1m
1A
1;
0<
1=
01
14
1"!
0&
1i
0Z!
11!
08!
08
0W!
1+!
1Y!
1t
0C
1<!
1/!
0`!
0@
16!
0:
0V!
0[!
12!
09!
09
0X!
1,!
0=!
1?!
10!
0a!
0/!
0.
0%
1r!
15!
06!
0Y!
1.!
0b!
0?!
00!
1/
1$
05!
0r!
1V!
0/
1.
0$
1%
#120000
b1101000101110011101110101000100 "
b100101011111110001010011000010 !
b1101000101110011101100101000100 "
b100101011111110001010011001010 !
b1101000101110011101100001000100 "
b100101111111110001010011001010 !
b1101000101110011101000001000100 "
b100100111111110001010011001010 !
b101000101110011101000001000100 "
b100100111111110001000011001010 !
b101100101110011101000001000100 "
b101100101110011101000001000000 "
b101100111110011101000001000000 "
b101100111110011101000001001000 "
b101101111110011101000001001000 "
b101101011110011101000001001000 "
b101101011110111101000001001000 "
b101101011110111101000001101000 "
b100100111111110001000111001010 !
b1100100111111110001000111001010 !
b1100100111110110001000111001010 !
b1101011110111101000001101000 "
b1101011010111101000001101000 "
b1110100111110110001000111001010 !
b1110100111110110001000111001110 !
b1110000111110110001000111001110 !
b1101011010111101000001111000 "
b1110000111110110001000111001100 !
0I
1Q
1O
1h
0a
1r
0n
1?
00
06
1'!
1$!
0N
1P
1W
1U
1Y
0g
0c
0b
1q
0A
1<
0=
11
15
0"!
0!!
1&
0d!
1E!
1M!
1e
13!
0t
1Z!
1p
1`!
0;!
1W!
0+!
1V
1C
0e!
1F!
1N!
1f
1u
1[!
1a!
0<!
1X!
0,!
1O!
0o!
1S!
1Y!
0.!
1T!
1r!
0V!
1/
0.
1$
0%
