simulation/qsim/ARP.msim.vcd
$comment
	File created using the following command:
		vcd file ARP.msim.vcd -direction
$end
$date
	Sat Mar 04 12:40:40 2023
$end
$version
	ModelSim Version 10.1d
$end
$timescale
	1ps
$end
$scope module gpu_vlg_vec_tst $end
$var reg 32 ! ABUS [31:0] $end
$var reg 1 " CLK $end
$var reg 32 # DBUS [31:0] $end
$var reg 16 $ treg_DRAM_DQ [15:0] $end
$var reg 1 % RD $end
$var reg 1 & WR $end
$var wire 1 ' DRAM_ADDR [11] $end
$var wire 1 ( DRAM_ADDR [10] $end
$var wire 1 ) DRAM_ADDR [9] $end
$var wire 1 * DRAM_ADDR [8] $end
$var wire 1 + DRAM_ADDR [7] $end
$var wire 1 , DRAM_ADDR [6] $end
$var wire 1 - DRAM_ADDR [5] $end
$var wire 1 . DRAM_ADDR [4] $end
$var wire 1 / DRAM_ADDR [3] $end
$var wire 1 0 DRAM_ADDR [2] $end
$var wire 1 1 DRAM_ADDR [1] $end
$var wire 1 2 DRAM_ADDR [0] $end
$var wire 1 3 DRAM_BA_0 $end
$var wire 1 4 DRAM_BA_1 $end
$var wire 1 5 DRAM_CAS_N $end
$var wire 1 6 DRAM_CKE $end
$var wire 1 7 DRAM_CLK $end
$var wire 1 8 DRAM_CS_N $end
$var wire 1 9 DRAM_DQ [15] $end
$var wire 1 : DRAM_DQ [14] $end
$var wire 1 ; DRAM_DQ [13] $end
$var wire 1 < DRAM_DQ [12] $end
$var wire 1 = DRAM_DQ [11] $end
$var wire 1 > DRAM_DQ [10] $end
$var wire 1 ? DRAM_DQ [9] $end
$var wire 1 @ DRAM_DQ [8] $end
$var wire 1 A DRAM_DQ [7] $end
$var wire 1 B DRAM_DQ [6] $end
$var wire 1 C DRAM_DQ [5] $end
$var wire 1 D DRAM_DQ [4] $end
$var wire 1 E DRAM_DQ [3] $end
$var wire 1 F DRAM_DQ [2] $end
$var wire 1 G DRAM_DQ [1] $end
$var wire 1 H DRAM_DQ [0] $end
$var wire 1 I DRAM_LDQM $end
$var wire 1 J DRAM_RAS_N $end
$var wire 1 K DRAM_UDQM $end
$var wire 1 L DRAM_WE_N $end
$var wire 1 M VGA_B [3] $end
$var wire 1 N VGA_B [2] $end
$var wire 1 O VGA_B [1] $end
$var wire 1 P VGA_B [0] $end
$var wire 1 Q VGA_G [3] $end
$var wire 1 R VGA_G [2] $end
$var wire 1 S VGA_G [1] $end
$var wire 1 T VGA_G [0] $end
$var wire 1 U VGA_HS $end
$var wire 1 V VGA_R [3] $end
$var wire 1 W VGA_R [2] $end
$var wire 1 X VGA_R [1] $end
$var wire 1 Y VGA_R [0] $end
$var wire 1 Z VGA_VS $end
$var wire 1 [ sampler $end
$scope module i1 $end
$var wire 1 \ gnd $end
$var wire 1 ] vcc $end
$var wire 1 ^ unknown $end
$var tri1 1 _ devclrn $end
$var tri1 1 ` devpor $end
$var tri1 1 a devoe $end
$var wire 1 b RD~input_o $end
$var wire 1 c WR~input_o $end
$var wire 1 d ABUS[31]~input_o $end
$var wire 1 e ABUS[30]~input_o $end
$var wire 1 f ABUS[29]~input_o $end
$var wire 1 g ABUS[28]~input_o $end
$var wire 1 h ABUS[27]~input_o $end
$var wire 1 i ABUS[26]~input_o $end
$var wire 1 j ABUS[25]~input_o $end
$var wire 1 k ABUS[24]~input_o $end
$var wire 1 l ABUS[23]~input_o $end
$var wire 1 m ABUS[22]~input_o $end
$var wire 1 n ABUS[21]~input_o $end
$var wire 1 o ABUS[20]~input_o $end
$var wire 1 p ABUS[19]~input_o $end
$var wire 1 q ABUS[18]~input_o $end
$var wire 1 r ABUS[17]~input_o $end
$var wire 1 s ABUS[16]~input_o $end
$var wire 1 t ABUS[15]~input_o $end
$var wire 1 u ABUS[14]~input_o $end
$var wire 1 v ABUS[13]~input_o $end
$var wire 1 w ABUS[12]~input_o $end
$var wire 1 x ABUS[11]~input_o $end
$var wire 1 y ABUS[10]~input_o $end
$var wire 1 z ABUS[9]~input_o $end
$var wire 1 { ABUS[8]~input_o $end
$var wire 1 | ABUS[7]~input_o $end
$var wire 1 } ABUS[6]~input_o $end
$var wire 1 ~ ABUS[5]~input_o $end
$var wire 1 !! ABUS[4]~input_o $end
$var wire 1 "! ABUS[3]~input_o $end
$var wire 1 #! ABUS[2]~input_o $end
$var wire 1 $! ABUS[1]~input_o $end
$var wire 1 %! ABUS[0]~input_o $end
$var wire 1 &! DBUS[31]~input_o $end
$var wire 1 '! DBUS[30]~input_o $end
$var wire 1 (! DBUS[29]~input_o $end
$var wire 1 )! DBUS[28]~input_o $end
$var wire 1 *! DBUS[27]~input_o $end
$var wire 1 +! DBUS[26]~input_o $end
$var wire 1 ,! DBUS[25]~input_o $end
$var wire 1 -! DBUS[24]~input_o $end
$var wire 1 .! DBUS[23]~input_o $end
$var wire 1 /! DBUS[22]~input_o $end
$var wire 1 0! DBUS[21]~input_o $end
$var wire 1 1! DBUS[20]~input_o $end
$var wire 1 2! DBUS[19]~input_o $end
$var wire 1 3! DBUS[18]~input_o $end
$var wire 1 4! DBUS[17]~input_o $end
$var wire 1 5! DBUS[16]~input_o $end
$var wire 1 6! DBUS[15]~input_o $end
$var wire 1 7! DBUS[14]~input_o $end
$var wire 1 8! DBUS[13]~input_o $end
$var wire 1 9! DBUS[12]~input_o $end
$var wire 1 :! DBUS[11]~input_o $end
$var wire 1 ;! DBUS[10]~input_o $end
$var wire 1 <! DBUS[9]~input_o $end
$var wire 1 =! DBUS[8]~input_o $end
$var wire 1 >! DBUS[7]~input_o $end
$var wire 1 ?! DBUS[6]~input_o $end
$var wire 1 @! DBUS[5]~input_o $end
$var wire 1 A! DBUS[4]~input_o $end
$var wire 1 B! DBUS[3]~input_o $end
$var wire 1 C! DBUS[2]~input_o $end
$var wire 1 D! DBUS[1]~input_o $end
$var wire 1 E! DBUS[0]~input_o $end
$var wire 1 F! DRAM_DQ[3]~input_o $end
$var wire 1 G! DRAM_DQ[2]~input_o $end
$var wire 1 H! DRAM_DQ[1]~input_o $end
$var wire 1 I! DRAM_DQ[0]~input_o $end
$var wire 1 J! DRAM_BA_0~output_o $end
$var wire 1 K! DRAM_BA_1~output_o $end
$var wire 1 L! DRAM_ADDR[11]~output_o $end
$var wire 1 M! DRAM_ADDR[10]~output_o $end
$var wire 1 N! DRAM_ADDR[9]~output_o $end
$var wire 1 O! DRAM_ADDR[8]~output_o $end
$var wire 1 P! DRAM_ADDR[7]~output_o $end
$var wire 1 Q! DRAM_ADDR[6]~output_o $end
$var wire 1 R! DRAM_ADDR[5]~output_o $end
$var wire 1 S! DRAM_ADDR[4]~output_o $end
$var wire 1 T! DRAM_ADDR[3]~output_o $end
$var wire 1 U! DRAM_ADDR[2]~output_o $end
$var wire 1 V! DRAM_ADDR[1]~output_o $end
$var wire 1 W! DRAM_ADDR[0]~output_o $end
$var wire 1 X! VGA_B[3]~output_o $end
$var wire 1 Y! VGA_B[2]~output_o $end
$var wire 1 Z! VGA_B[1]~output_o $end
$var wire 1 [! VGA_B[0]~output_o $end
$var wire 1 \! VGA_G[3]~output_o $end
$var wire 1 ]! VGA_G[2]~output_o $end
$var wire 1 ^! VGA_G[1]~output_o $end
$var wire 1 _! VGA_G[0]~output_o $end
$var wire 1 `! VGA_R[3]~output_o $end
$var wire 1 a! VGA_R[2]~output_o $end
$var wire 1 b! VGA_R[1]~output_o $end
$var wire 1 c! VGA_R[0]~output_o $end
$var wire 1 d! DRAM_DQ[15]~output_o $end
$var wire 1 e! DRAM_DQ[14]~output_o $end
$var wire 1 f! DRAM_DQ[13]~output_o $end
$var wire 1 g! DRAM_DQ[12]~output_o $end
$var wire 1 h! DRAM_DQ[11]~output_o $end
$var wire 1 i! DRAM_DQ[10]~output_o $end
$var wire 1 j! DRAM_DQ[9]~output_o $end
$var wire 1 k! DRAM_DQ[8]~output_o $end
$var wire 1 l! DRAM_DQ[7]~output_o $end
$var wire 1 m! DRAM_DQ[6]~output_o $end
$var wire 1 n! DRAM_DQ[5]~output_o $end
$var wire 1 o! DRAM_DQ[4]~output_o $end
$var wire 1 p! DRAM_DQ[3]~output_o $end
$var wire 1 q! DRAM_DQ[2]~output_o $end
$var wire 1 r! DRAM_DQ[1]~output_o $end
$var wire 1 s! DRAM_DQ[0]~output_o $end
$var wire 1 t! DRAM_LDQM~output_o $end
$var wire 1 u! DRAM_UDQM~output_o $end
$var wire 1 v! DRAM_WE_N~output_o $end
$var wire 1 w! DRAM_CAS_N~output_o $end
$var wire 1 x! DRAM_RAS_N~output_o $end
$var wire 1 y! DRAM_CS_N~output_o $end
$var wire 1 z! DRAM_CLK~output_o $end
$var wire 1 {! DRAM_CKE~output_o $end
$var wire 1 |! VGA_HS~output_o $end
$var wire 1 }! VGA_VS~output_o $end
$var wire 1 ~! CLK~input_o $end
$var wire 1 !" CLK~inputclkctrl_outclk $end
$var wire 1 "" inst|inst|inst3|inst~0_combout $end
$var wire 1 #" inst|inst|inst3|inst~q $end
$var wire 1 $" inst|inst|inst4|inst~0_combout $end
$var wire 1 %" inst|inst|inst4|inst~q $end
$var wire 1 &" inst|inst|inst4|inst14~combout $end
$var wire 1 '" inst|inst|inst5|inst~0_combout $end
$var wire 1 (" inst|inst|inst5|inst~q $end
$var wire 1 )" inst|inst|inst6|inst~0_combout $end
$var wire 1 *" inst|inst|inst6|inst~q $end
$var wire 1 +" inst|inst|inst7|inst~0_combout $end
$var wire 1 ," inst|inst|inst7|inst~q $end
$var wire 1 -" inst|inst|inst9|inst~0_combout $end
$var wire 1 ." inst|inst|inst9|inst~q $end
$var wire 1 /" inst|inst|inst8|inst~0_combout $end
$var wire 1 0" inst|inst|inst8|inst~q $end
$var wire 1 1" inst|inst12|inst2~combout $end
$var wire 1 2" inst|inst|inst10|inst~0_combout $end
$var wire 1 3" inst|inst|inst10|inst~1_combout $end
$var wire 1 4" inst|inst|inst10|inst~q $end
$var wire 1 5" inst|inst12|inst2~3_combout $end
$var wire 1 6" inst|inst8|inst12~4_combout $end
$var wire 1 7" inst|inst12|inst2~4_combout $end
$var wire 1 8" inst|inst|inst8|inst14~0_combout $end
$var wire 1 9" inst|inst|inst|inst~2_combout $end
$var wire 1 :" inst|inst|inst|inst~q $end
$var wire 1 ;" inst|inst|inst1|inst~0_combout $end
$var wire 1 <" inst|inst|inst1|inst~q $end
$var wire 1 =" inst|inst|inst1|inst14~0_combout $end
$var wire 1 >" inst|inst|inst2|inst~0_combout $end
$var wire 1 ?" inst|inst|inst2|inst~q $end
$var wire 1 @" inst|inst12|inst2~2_combout $end
$var wire 1 A" inst1|inst5|inst2|inst~1_combout $end
$var wire 1 B" inst1|inst5|inst2|inst~2_combout $end
$var wire 1 C" inst1|inst5|inst12|inst~0_combout $end
$var wire 1 D" inst|inst5~0_combout $end
$var wire 1 E" inst1|inst5|inst3|inst~0_combout $end
$var wire 1 F" inst1|inst5|inst2|inst~0_combout $end
$var wire 1 G" inst1|inst5|inst4|inst4~0_combout $end
$var wire 1 H" inst1|inst5|inst13|inst~0_combout $end
$var wire 1 I" inst1|inst5|inst13|inst~1_combout $end
$var wire 1 J" inst1|inst5|inst13|inst~2_combout $end
$var wire 1 K" inst1|inst5|inst13|inst~3_combout $end
$var wire 1 L" inst1|inst5|inst4|inst4~1_combout $end
$var wire 1 M" inst1|inst5|inst4|inst5~0_combout $end
$var wire 1 N" inst1|inst|inst|inst9|inst~0_combout $end
$var wire 1 O" inst1|inst|inst|inst9|inst~q $end
$var wire 1 P" inst1|inst|inst|inst8|inst~0_combout $end
$var wire 1 Q" inst1|inst|inst|inst8|inst~q $end
$var wire 1 R" inst1|inst|inst|inst|inst~0_combout $end
$var wire 1 S" inst1|inst|inst|inst|inst~q $end
$var wire 1 T" inst1|inst|inst|inst|inst14~combout $end
$var wire 1 U" inst1|inst|inst|inst1|inst~0_combout $end
$var wire 1 V" inst1|inst|inst|inst1|inst~q $end
$var wire 1 W" inst1|inst|inst|inst2|inst~0_combout $end
$var wire 1 X" inst1|inst|inst|inst2|inst~q $end
$var wire 1 Y" inst1|inst|inst|inst3|inst~0_combout $end
$var wire 1 Z" inst1|inst|inst|inst3|inst~q $end
$var wire 1 [" inst1|inst|inst|inst3|inst14~combout $end
$var wire 1 \" inst1|inst|inst|inst4|inst~0_combout $end
$var wire 1 ]" inst1|inst|inst|inst4|inst~q $end
$var wire 1 ^" inst1|inst|inst|inst5|inst~0_combout $end
$var wire 1 _" inst1|inst|inst|inst5|inst~q $end
$var wire 1 `" inst1|inst|inst|inst6|inst~0_combout $end
$var wire 1 a" inst1|inst|inst|inst6|inst~q $end
$var wire 1 b" inst1|inst|inst|inst6|inst14~0_combout $end
$var wire 1 c" inst1|inst|inst|inst6|inst14~combout $end
$var wire 1 d" inst1|inst|inst|inst7|inst~0_combout $end
$var wire 1 e" inst1|inst|inst|inst7|inst~q $end
$var wire 1 f" inst1|inst|inst|inst10|inst~0_combout $end
$var wire 1 g" inst1|inst|inst|inst10|inst~q $end
$var wire 1 h" inst1|inst|inst|inst11|inst~0_combout $end
$var wire 1 i" inst1|inst|inst|inst11|inst~q $end
$var wire 1 j" inst1|inst|inst|inst11|inst14~combout $end
$var wire 1 k" inst1|inst|inst|inst12|inst~0_combout $end
$var wire 1 l" inst1|inst|inst|inst12|inst~q $end
$var wire 1 m" inst1|inst|inst9|inst2~1_combout $end
$var wire 1 n" inst1|inst|inst9|inst2~0_combout $end
$var wire 1 o" inst1|inst|inst9|inst2~2_combout $end
$var wire 1 p" inst1|inst|inst9|inst2~3_combout $end
$var wire 1 q" inst1|inst|inst22~0_combout $end
$var wire 1 r" inst1|inst|inst22~q $end
$var wire 1 s" inst1|inst5|inst4|inst5~1_combout $end
$var wire 1 t" inst1|inst5|inst39~combout $end
$var wire 1 u" inst|inst2|inst9|inst~2_combout $end
$var wire 1 v" inst|inst2|inst9|inst~q $end
$var wire 1 w" inst|inst2|inst9|inst14~combout $end
$var wire 1 x" inst|inst2|inst8|inst~0_combout $end
$var wire 1 y" inst|inst2|inst8|inst~q $end
$var wire 1 z" inst|inst2|inst3|inst~0_combout $end
$var wire 1 {" inst|inst2|inst3|inst~q $end
$var wire 1 |" inst|inst2|inst|inst~0_combout $end
$var wire 1 }" inst|inst2|inst|inst~q $end
$var wire 1 ~" inst|inst2|inst4|inst~0_combout $end
$var wire 1 !# inst|inst2|inst4|inst~q $end
$var wire 1 "# inst1|inst5|inst20|inst|inst3|inst|inst19~1_combout $end
$var wire 1 ## inst|inst2|inst6|inst~0_combout $end
$var wire 1 $# inst|inst2|inst6|inst~q $end
$var wire 1 %# inst|inst2|inst7|inst~0_combout $end
$var wire 1 &# inst|inst2|inst7|inst~1_combout $end
$var wire 1 '# inst|inst2|inst7|inst~q $end
$var wire 1 (# inst1|inst5|inst20|inst|inst3|inst|inst19~0_combout $end
$var wire 1 )# inst1|inst5|inst20|inst|inst3|inst|inst19~2_combout $end
$var wire 1 *# inst|inst28~combout $end
$var wire 1 +# inst|inst2|inst1|inst14~2_combout $end
$var wire 1 ,# inst|inst2|inst1|inst~0_combout $end
$var wire 1 -# inst|inst2|inst1|inst~q $end
$var wire 1 .# inst|inst2|inst1|inst14~0_combout $end
$var wire 1 /# inst|inst2|inst1|inst14~1_combout $end
$var wire 1 0# inst|inst2|inst2|inst~0_combout $end
$var wire 1 1# inst|inst2|inst2|inst~q $end
$var wire 1 2# inst|inst2|inst5|inst14~0_combout $end
$var wire 1 3# inst|inst2|inst5|inst~0_combout $end
$var wire 1 4# inst|inst2|inst5|inst~q $end
$var wire 1 5# inst1|inst5|inst19|inst|inst3|inst1|inst17~0_combout $end
$var wire 1 6# inst1|inst5|inst19|inst|inst3|inst1|inst17~1_combout $end
$var wire 1 7# inst|inst16~0_combout $end
$var wire 1 8# inst|inst16~1_combout $end
$var wire 1 9# inst1|inst5|inst19|inst|inst2|inst1|inst19~0_combout $end
$var wire 1 :# inst1|inst5|inst27~0_combout $end
$var wire 1 ;# inst1|inst5|inst29~combout $end
$var wire 1 <# inst1|inst5|inst33~0_combout $end
$var wire 1 =# inst1|inst5|inst31~0_combout $end
$var wire 1 ># inst1|inst5|inst33~1_combout $end
$var wire 1 ?# inst1|inst5|inst31~1_combout $end
$var wire 1 @# inst1|inst5|inst41|inst|inst1~0_combout $end
$var wire 1 A# inst1|inst5|inst28~0_combout $end
$var wire 1 B# inst1|inst5|inst28~1_combout $end
$var wire 1 C# inst1|inst5|inst44~0_combout $end
$var wire 1 D# inst1|inst|inst4|inst~0_combout $end
$var wire 1 E# inst1|inst|inst4|inst~combout $end
$var wire 1 F# inst1|inst|inst26[11]~11_combout $end
$var wire 1 G# inst1|inst|inst26[11]~12_combout $end
$var wire 1 H# inst1|inst|inst26[11]~13_combout $end
$var wire 1 I# inst1|inst|inst7|inst~combout $end
$var wire 1 J# inst1|inst|inst18[10]~1_combout $end
$var wire 1 K# inst1|inst5|inst33~2_combout $end
$var wire 1 L# inst1|inst|inst26[9]~14_combout $end
$var wire 1 M# inst1|inst|inst26[9]~15_combout $end
$var wire 1 N# inst1|inst|inst26[8]~16_combout $end
$var wire 1 O# inst1|inst|inst26[8]~17_combout $end
$var wire 1 P# inst1|inst|inst26[7]~18_combout $end
$var wire 1 Q# inst1|inst|inst26[7]~19_combout $end
$var wire 1 R# inst1|inst|inst26[6]~20_combout $end
$var wire 1 S# inst1|inst|inst26[6]~21_combout $end
$var wire 1 T# inst1|inst|inst26[5]~22_combout $end
$var wire 1 U# inst1|inst|inst26[5]~23_combout $end
$var wire 1 V# inst1|inst|inst26[4]~24_combout $end
$var wire 1 W# inst1|inst|inst26[4]~25_combout $end
$var wire 1 X# inst1|inst|inst26[3]~26_combout $end
$var wire 1 Y# inst1|inst|inst26[3]~27_combout $end
$var wire 1 Z# inst1|inst|inst26[2]~28_combout $end
$var wire 1 [# inst1|inst|inst26[2]~29_combout $end
$var wire 1 \# inst1|inst|inst26[1]~30_combout $end
$var wire 1 ]# inst1|inst|inst26[1]~31_combout $end
$var wire 1 ^# inst1|inst|inst26[0]~32_combout $end
$var wire 1 _# inst1|inst|inst26[0]~33_combout $end
$var wire 1 `# DRAM_DQ[7]~input_o $end
$var wire 1 a# inst1|inst5|inst20|inst|inst3|inst|inst19~3_combout $end
$var wire 1 b# inst|inst14~0_combout $end
$var wire 1 c# inst|inst14~q $end
$var wire 1 d# inst|inst5~3_combout $end
$var wire 1 e# inst|inst8|inst12~5_combout $end
$var wire 1 f# inst|inst3~0_combout $end
$var wire 1 g# inst|inst3~q $end
$var wire 1 h# inst|inst26~combout $end
$var wire 1 i# DRAM_DQ[6]~input_o $end
$var wire 1 j# DRAM_DQ[5]~input_o $end
$var wire 1 k# DRAM_DQ[4]~input_o $end
$var wire 1 l# DRAM_DQ[11]~input_o $end
$var wire 1 m# DRAM_DQ[10]~input_o $end
$var wire 1 n# DRAM_DQ[9]~input_o $end
$var wire 1 o# DRAM_DQ[8]~input_o $end
$var wire 1 p# DRAM_DQ[15]~input_o $end
$var wire 1 q# DRAM_DQ[14]~input_o $end
$var wire 1 r# DRAM_DQ[13]~input_o $end
$var wire 1 s# DRAM_DQ[12]~input_o $end
$var wire 1 t# inst1|inst10|inst2|inst2~0_combout $end
$var wire 1 u# inst1|inst10|inst10~combout $end
$var wire 1 v# inst1|inst|inst17~0_combout $end
$var wire 1 w# inst1|inst10|inst9~0_combout $end
$var wire 1 x# inst1|inst10|inst2|inst3|inst[0]~0_combout $end
$var wire 1 y# inst1|inst10|inst2|inst3|inst1[1]~2_combout $end
$var wire 1 z# inst1|inst10|inst2|inst2~1_combout $end
$var wire 1 {# inst1|inst10|inst2|inst2~combout $end
$var wire 1 |# inst|inst5~1_combout $end
$var wire 1 }# inst|inst5~2_combout $end
$var wire 1 ~# inst|inst5~4_combout $end
$var wire 1 !$ inst|inst5~q $end
$var wire 1 "$ inst|inst16~3_combout $end
$var wire 1 #$ inst|inst16~5_combout $end
$var wire 1 $$ inst|inst16~2_combout $end
$var wire 1 %$ inst|inst16~4_combout $end
$var wire 1 &$ inst|inst16~6_combout $end
$var wire 1 '$ inst|inst16~q $end
$upscope $end
$upscope $end
$enddefinitions $end
#0
$dumpvars
bx !
0"
bx #
bx $
x%
x&
z2
z1
z0
z/
z.
z-
z,
z+
z*
z)
z(
z'
z3
z4
05
16
17
18
xH
xG
xF
xE
xD
xC
xB
xA
x@
x?
x>
x=
x<
x;
x:
x9
0I
0J
0K
0L
zP
zO
zN
zM
zT
zS
zR
zQ
0U
zY
zX
zW
zV
0Z
x[
0\
1]
x^
1_
1`
1a
xb
xc
xd
xe
xf
xg
xh
xi
xj
xk
xl
xm
xn
xo
xp
xq
xr
xs
xt
xu
xv
xw
xx
xy
xz
x{
x|
x}
x~
x!!
x"!
x#!
x$!
x%!
x&!
x'!
x(!
x)!
x*!
x+!
x,!
x-!
x.!
x/!
x0!
x1!
x2!
x3!
x4!
x5!
x6!
x7!
x8!
x9!
x:!
x;!
x<!
x=!
x>!
x?!
x@!
xA!
xB!
xC!
xD!
xE!
xF!
xG!
xH!
xI!
zJ!
zK!
zL!
zM!
zN!
zO!
zP!
zQ!
zR!
zS!
zT!
zU!
zV!
zW!
zX!
zY!
zZ!
z[!
z\!
z]!
z^!
z_!
z`!
za!
zb!
zc!
zd!
ze!
zf!
zg!
zh!
zi!
zj!
zk!
zl!
zm!
zn!
zo!
zp!
zq!
zr!
zs!
0t!
0u!
0v!
0w!
0x!
1y!
1z!
1{!
0|!
0}!
0~!
0!"
0""
0#"
0$"
0%"
0&"
0'"
0("
0)"
0*"
0+"
0,"
1-"
0."
0/"
00"
01"
02"
03"
04"
05"
06"
07"
08"
09"
0:"
0;"
0<"
0="
0>"
0?"
0@"
0A"
0B"
0C"
0D"
0E"
0F"
0G"
0H"
0I"
0J"
0K"
0L"
0M"
1N"
0O"
0P"
0Q"
0R"
0S"
0T"
0U"
0V"
0W"
0X"
0Y"
0Z"
0["
0\"
0]"
0^"
0_"
0`"
0a"
0b"
0c"
0d"
0e"
0f"
0g"
0h"
0i"
0j"
0k"
0l"
0m"
0n"
0o"
0p"
0q"
0r"
1s"
0t"
0u"
0v"
0w"
0x"
0y"
0z"
0{"
0|"
0}"
0~"
0!#
0"#
0##
0$#
0%#
0&#
0'#
0(#
0)#
0*#
0+#
0,#
0-#
0.#
0/#
00#
01#
02#
03#
04#
05#
06#
07#
08#
09#
1:#
0;#
0<#
1=#
1>#
0?#
1@#
0A#
0B#
0C#
0D#
0E#
1F#
1G#
0H#
0I#
1J#
1K#
0L#
1M#
0N#
1O#
0P#
1Q#
0R#
1S#
0T#
1U#
0V#
1W#
0X#
1Y#
0Z#
1[#
0\#
1]#
0^#
1_#
x`#
0a#
0b#
0c#
0d#
1e#
0f#
0g#
0h#
xi#
xj#
xk#
xl#
xm#
xn#
xo#
xp#
xq#
xr#
xs#
1t#
0u#
0v#
0w#
0x#
0y#
1z#
0{#
0|#
0}#
0~#
0!$
0"$
0#$
1$$
0%$
0&$
0'$
$end
#5000
1"
1~!
1!"
0[
0z!
07
1O"
1."
1P"
0N"
1C"
1/"
0-"
#10000
0"
0~!
0!"
1[
1z!
17
#15000
1"
1~!
1!"
0[
0z!
07
1Q"
0O"
10"
0."
1N"
1F"
0C"
1-"
#20000
0"
0~!
0!"
1[
1z!
17
#25000
1"
1~!
1!"
0[
0z!
07
1O"
1."
1R"
0P"
0N"
0F"
19"
18"
0/"
0-"
#30000
0"
0~!
0!"
1[
1z!
17
#35000
1"
1~!
1!"
0[
0z!
07
1S"
0Q"
0O"
1:"
00"
0."
1N"
1H"
1@"
1;"
08"
1-"
0;"
#40000
0"
0~!
0!"
1[
1z!
17
#45000
1"
1~!
1!"
0[
0z!
07
1O"
1."
1P"
0N"
1C"
1/"
0-"
#50000
0"
0~!
0!"
1[
1z!
17
#55000
1"
1~!
1!"
0[
0z!
07
1Q"
0O"
10"
0."
1N"
1F"
0C"
1-"
#60000
0"
0~!
0!"
1[
1z!
17
#65000
1"
1~!
1!"
0[
0z!
07
1O"
1."
1T"
0R"
0P"
0N"
0F"
09"
18"
0/"
0-"
1U"
1;"
#70000
0"
0~!
0!"
1[
1z!
17
#75000
1"
1~!
1!"
0[
0z!
07
1V"
0S"
0Q"
0O"
1<"
0:"
00"
0."
1W"
0U"
0T"
1N"
0e#
16"
0H"
0@"
08"
1-"
0W"
1U"
1e#
#80000
0"
0~!
0!"
1[
1z!
17
#85000
1"
1~!
1!"
0[
0z!
07
1O"
1."
1P"
0N"
1C"
1/"
0-"
#90000
0"
0~!
0!"
1[
1z!
17
#95000
1"
1~!
1!"
0[
0z!
07
1Q"
0O"
10"
0."
1N"
1F"
0C"
1-"
#100000
0"
0~!
0!"
1[
1z!
17
#105000
1"
1~!
1!"
0[
0z!
07
1O"
1."
1R"
0P"
0N"
0F"
19"
18"
0/"
0-"
#110000
0"
0~!
0!"
1[
1z!
17
#115000
1"
1~!
1!"
0[
0z!
07
1S"
0Q"
0O"
1:"
00"
0."
1N"
1H"
1@"
1="
0;"
08"
1-"
0e#
1>"
0="
1;"
0>"
#120000
0"
0~!
0!"
1[
1z!
17
#125000
1"
1~!
1!"
0[
0z!
07
1O"
1."
1P"
0N"
1C"
1/"
0-"
#130000
0"
0~!
0!"
1[
1z!
17
#135000
1"
1~!
1!"
0[
0z!
07
1Q"
0O"
10"
0."
1N"
1F"
0C"
1-"
#140000
0"
0~!
0!"
1[
1z!
17
#145000
1"
1~!
1!"
0[
0z!
07
1O"
1."
1T"
0R"
0P"
0N"
0F"
09"
18"
0/"
0-"
1W"
0U"
1="
0;"
1>"
#150000
0"
0~!
0!"
1[
1z!
17
#155000
1"
1~!
1!"
0[
0z!
07
1X"
0V"
0S"
0Q"
0O"
1?"
0<"
0:"
00"
0."
1U"
0T"
1N"
1J"
0@"
0>"
1""
1e#
0="
06"
0H"
08"
1-"
0U"
1>"
0""
#160000
0"
0~!
0!"
1[
1z!
17
#165000
1"
1~!
1!"
0[
0z!
07
1O"
1."
1P"
0N"
1C"
1/"
0-"
#170000
0"
0~!
0!"
1[
1z!
17
#175000
1"
1~!
1!"
0[
0z!
07
1Q"
0O"
10"
0."
1N"
1F"
0C"
1-"
#180000
0"
0~!
0!"
1[
1z!
17
#185000
1"
1~!
1!"
0[
0z!
07
1O"
1."
1R"
0P"
0N"
0F"
19"
18"
0/"
0-"
#190000
0"
0~!
0!"
1[
1z!
17
#195000
1"
1~!
1!"
0[
0z!
07
1S"
0Q"
0O"
1:"
00"
0."
1N"
1H"
1;"
08"
1-"
0;"
#200000
0"
0~!
0!"
1[
1z!
17
#205000
1"
1~!
1!"
0[
0z!
07
1O"
1."
1P"
0N"
1C"
1/"
0-"
#210000
0"
0~!
0!"
1[
1z!
17
#215000
1"
1~!
1!"
0[
0z!
07
1Q"
0O"
10"
0."
1N"
1F"
0C"
1-"
#220000
0"
0~!
0!"
1[
1z!
17
#225000
1"
1~!
1!"
0[
0z!
07
1O"
1."
1T"
0R"
0P"
0N"
0F"
09"
18"
0/"
0-"
1U"
1;"
#230000
0"
0~!
0!"
1[
1z!
17
#235000
1"
1~!
1!"
0[
0z!
07
1V"
0S"
0Q"
0O"
1<"
0:"
00"
0."
1Y"
0W"
0U"
0T"
1N"
0e#
16"
0H"
08"
1-"
0Y"
1W"
1U"
1e#
#240000
0"
0~!
0!"
1[
1z!
17
#245000
1"
1~!
1!"
0[
0z!
07
1O"
1."
1P"
0N"
1C"
1/"
0-"
#250000
0"
0~!
0!"
1[
1z!
17
#255000
1"
1~!
1!"
0[
0z!
07
1Q"
0O"
10"
0."
1N"
1F"
0C"
1-"
#260000
0"
0~!
0!"
1[
1z!
17
#265000
1"
1~!
1!"
0[
0z!
07
1O"
1."
1R"
0P"
0N"
0F"
19"
18"
0/"
0-"
#270000
0"
0~!
0!"
1[
1z!
17
#275000
1"
1~!
1!"
0[
0z!
07
1S"
0Q"
0O"
1:"
00"
0."
1N"
1H"
1="
0;"
08"
1-"
0e#
0>"
1""
0="
1;"
1>"
0""
#280000
0"
0~!
0!"
1[
1z!
17
#285000
1"
1~!
1!"
0[
0z!
07
1O"
1."
1P"
0N"
1C"
1/"
0-"
#290000
0"
0~!
0!"
1[
1z!
17
#295000
1"
1~!
1!"
0[
0z!
07
1Q"
0O"
10"
0."
1N"
1F"
0C"
1-"
#300000
0"
0~!
0!"
1[
1z!
17
#305000
1"
1~!
1!"
0[
0z!
07
1O"
1."
1T"
0R"
0P"
0N"
0F"
09"
18"
0/"
0-"
1Y"
0W"
0U"
1="
0;"
0>"
1""
#310000
0"
0~!
0!"
1[
1z!
17
#315000
1"
1~!
1!"
0[
0z!
07
1Z"
0X"
0V"
0S"
0Q"
0O"
0?"
0<"
0:"
00"
0."
1#"
1U"
0T"
1N"
0J"
1>"
1e#
0="
06"
0H"
08"
1-"
0U"
0>"
#320000
0"
0~!
0!"
1[
1z!
17
#325000
1"
1~!
1!"
0[
0z!
07
1O"
1."
1P"
0N"
1C"
1/"
0-"
#330000
0"
0~!
0!"
1[
1z!
17
#335000
1"
1~!
1!"
0[
0z!
07
1Q"
0O"
10"
0."
1N"
1F"
0C"
1-"
#340000
0"
0~!
0!"
1[
1z!
17
#345000
1"
1~!
1!"
0[
0z!
07
1O"
1."
1R"
0P"
0N"
0F"
19"
18"
0/"
0-"
#350000
0"
0~!
0!"
1[
1z!
17
#355000
1"
1~!
1!"
0[
0z!
07
1S"
0Q"
0O"
1:"
00"
0."
1N"
1;"
08"
1-"
0;"
#360000
0"
0~!
0!"
1[
1z!
17
#365000
1"
1~!
1!"
0[
0z!
07
1O"
1."
1P"
0N"
1C"
1/"
0-"
#370000
0"
0~!
0!"
1[
1z!
17
