simulation/qsim/ARP.msim.vcd
$comment
	File created using the following command:
		vcd file ARP.msim.vcd -direction
$end
$date
	Wed Feb 15 07:52:53 2023
$end
$version
	ModelSim Version 10.1d
$end
$timescale
	1ps
$end
$scope module sram_controller_vlg_vec_tst $end
$var reg 32 ! ABUS [31:0] $end
$var reg 1 " CLK $end
$var reg 32 # treg_DBUS [31:0] $end
$var reg 2 $ LEN [1:0] $end
$var reg 1 % RD $end
$var reg 1 & WR $end
$var wire 1 ' DBUS [31] $end
$var wire 1 ( DBUS [30] $end
$var wire 1 ) DBUS [29] $end
$var wire 1 * DBUS [28] $end
$var wire 1 + DBUS [27] $end
$var wire 1 , DBUS [26] $end
$var wire 1 - DBUS [25] $end
$var wire 1 . DBUS [24] $end
$var wire 1 / DBUS [23] $end
$var wire 1 0 DBUS [22] $end
$var wire 1 1 DBUS [21] $end
$var wire 1 2 DBUS [20] $end
$var wire 1 3 DBUS [19] $end
$var wire 1 4 DBUS [18] $end
$var wire 1 5 DBUS [17] $end
$var wire 1 6 DBUS [16] $end
$var wire 1 7 DBUS [15] $end
$var wire 1 8 DBUS [14] $end
$var wire 1 9 DBUS [13] $end
$var wire 1 : DBUS [12] $end
$var wire 1 ; DBUS [11] $end
$var wire 1 < DBUS [10] $end
$var wire 1 = DBUS [9] $end
$var wire 1 > DBUS [8] $end
$var wire 1 ? DBUS [7] $end
$var wire 1 @ DBUS [6] $end
$var wire 1 A DBUS [5] $end
$var wire 1 B DBUS [4] $end
$var wire 1 C DBUS [3] $end
$var wire 1 D DBUS [2] $end
$var wire 1 E DBUS [1] $end
$var wire 1 F DBUS [0] $end
$var wire 1 G sampler $end
$scope module i1 $end
$var wire 1 H gnd $end
$var wire 1 I vcc $end
$var wire 1 J unknown $end
$var tri1 1 K devclrn $end
$var tri1 1 L devpor $end
$var tri1 1 M devoe $end
$var wire 1 N ABUS[29]~input_o $end
$var wire 1 O ABUS[28]~input_o $end
$var wire 1 P ABUS[27]~input_o $end
$var wire 1 Q ABUS[26]~input_o $end
$var wire 1 R ABUS[25]~input_o $end
$var wire 1 S ABUS[24]~input_o $end
$var wire 1 T ABUS[23]~input_o $end
$var wire 1 U ABUS[22]~input_o $end
$var wire 1 V ABUS[21]~input_o $end
$var wire 1 W ABUS[20]~input_o $end
$var wire 1 X ABUS[19]~input_o $end
$var wire 1 Y ABUS[18]~input_o $end
$var wire 1 Z ABUS[17]~input_o $end
$var wire 1 [ ABUS[16]~input_o $end
$var wire 1 \ ABUS[15]~input_o $end
$var wire 1 ] DBUS[31]~output_o $end
$var wire 1 ^ DBUS[30]~output_o $end
$var wire 1 _ DBUS[29]~output_o $end
$var wire 1 ` DBUS[28]~output_o $end
$var wire 1 a DBUS[27]~output_o $end
$var wire 1 b DBUS[26]~output_o $end
$var wire 1 c DBUS[25]~output_o $end
$var wire 1 d DBUS[24]~output_o $end
$var wire 1 e DBUS[23]~output_o $end
$var wire 1 f DBUS[22]~output_o $end
$var wire 1 g DBUS[21]~output_o $end
$var wire 1 h DBUS[20]~output_o $end
$var wire 1 i DBUS[19]~output_o $end
$var wire 1 j DBUS[18]~output_o $end
$var wire 1 k DBUS[17]~output_o $end
$var wire 1 l DBUS[16]~output_o $end
$var wire 1 m DBUS[15]~output_o $end
$var wire 1 n DBUS[14]~output_o $end
$var wire 1 o DBUS[13]~output_o $end
$var wire 1 p DBUS[12]~output_o $end
$var wire 1 q DBUS[11]~output_o $end
$var wire 1 r DBUS[10]~output_o $end
$var wire 1 s DBUS[9]~output_o $end
$var wire 1 t DBUS[8]~output_o $end
$var wire 1 u DBUS[7]~output_o $end
$var wire 1 v DBUS[6]~output_o $end
$var wire 1 w DBUS[5]~output_o $end
$var wire 1 x DBUS[4]~output_o $end
$var wire 1 y DBUS[3]~output_o $end
$var wire 1 z DBUS[2]~output_o $end
$var wire 1 { DBUS[1]~output_o $end
$var wire 1 | DBUS[0]~output_o $end
$var wire 1 } WR~input_o $end
$var wire 1 ~ ABUS[31]~input_o $end
$var wire 1 !! ABUS[30]~input_o $end
$var wire 1 "! inst9~0_combout $end
$var wire 1 #! RD~input_o $end
$var wire 1 $! inst6~0_combout $end
$var wire 1 %! CLK~input_o $end
$var wire 1 &! CLK~inputclkctrl_outclk $end
$var wire 1 '! DBUS[31]~input_o $end
$var wire 1 (! inst16[31]~0_combout $end
$var wire 1 )! ABUS[2]~input_o $end
$var wire 1 *! ABUS[3]~input_o $end
$var wire 1 +! ABUS[4]~input_o $end
$var wire 1 ,! ABUS[5]~input_o $end
$var wire 1 -! ABUS[6]~input_o $end
$var wire 1 .! ABUS[7]~input_o $end
$var wire 1 /! ABUS[8]~input_o $end
$var wire 1 0! ABUS[9]~input_o $end
$var wire 1 1! ABUS[10]~input_o $end
$var wire 1 2! ABUS[11]~input_o $end
$var wire 1 3! ABUS[12]~input_o $end
$var wire 1 4! ABUS[13]~input_o $end
$var wire 1 5! ABUS[14]~input_o $end
$var wire 1 6! ABUS[1]~input_o $end
$var wire 1 7! LEN[1]~input_o $end
$var wire 1 8! LEN[0]~input_o $end
$var wire 1 9! ABUS[0]~input_o $end
$var wire 1 :! inst13|inst5[3]~0_combout $end
$var wire 1 ;! DBUS[30]~input_o $end
$var wire 1 <! inst16[30]~1_combout $end
$var wire 1 =! DBUS[29]~input_o $end
$var wire 1 >! inst16[29]~2_combout $end
$var wire 1 ?! DBUS[28]~input_o $end
$var wire 1 @! inst16[28]~3_combout $end
$var wire 1 A! DBUS[27]~input_o $end
$var wire 1 B! inst16[27]~4_combout $end
$var wire 1 C! DBUS[26]~input_o $end
$var wire 1 D! inst16[26]~5_combout $end
$var wire 1 E! DBUS[25]~input_o $end
$var wire 1 F! inst16[25]~6_combout $end
$var wire 1 G! DBUS[24]~input_o $end
$var wire 1 H! inst16[24]~7_combout $end
$var wire 1 I! DBUS[23]~input_o $end
$var wire 1 J! inst16[23]~8_combout $end
$var wire 1 K! inst13|inst5[2]~1_combout $end
$var wire 1 L! DBUS[22]~input_o $end
$var wire 1 M! inst16[22]~9_combout $end
$var wire 1 N! DBUS[21]~input_o $end
$var wire 1 O! inst16[21]~10_combout $end
$var wire 1 P! DBUS[20]~input_o $end
$var wire 1 Q! inst16[20]~11_combout $end
$var wire 1 R! DBUS[19]~input_o $end
$var wire 1 S! inst16[19]~12_combout $end
$var wire 1 T! DBUS[18]~input_o $end
$var wire 1 U! inst16[18]~13_combout $end
$var wire 1 V! DBUS[17]~input_o $end
$var wire 1 W! inst16[17]~14_combout $end
$var wire 1 X! DBUS[16]~input_o $end
$var wire 1 Y! inst16[16]~15_combout $end
$var wire 1 Z! DBUS[15]~input_o $end
$var wire 1 [! inst16[15]~16_combout $end
$var wire 1 \! inst13|inst5[1]~2_combout $end
$var wire 1 ]! DBUS[14]~input_o $end
$var wire 1 ^! inst16[14]~17_combout $end
$var wire 1 _! DBUS[13]~input_o $end
$var wire 1 `! inst16[13]~18_combout $end
$var wire 1 a! DBUS[12]~input_o $end
$var wire 1 b! inst16[12]~19_combout $end
$var wire 1 c! DBUS[11]~input_o $end
$var wire 1 d! inst16[11]~20_combout $end
$var wire 1 e! DBUS[10]~input_o $end
$var wire 1 f! inst16[10]~21_combout $end
$var wire 1 g! DBUS[9]~input_o $end
$var wire 1 h! inst16[9]~22_combout $end
$var wire 1 i! DBUS[8]~input_o $end
$var wire 1 j! inst16[8]~23_combout $end
$var wire 1 k! DBUS[7]~input_o $end
$var wire 1 l! inst16[7]~24_combout $end
$var wire 1 m! inst13|inst5[0]~3_combout $end
$var wire 1 n! DBUS[6]~input_o $end
$var wire 1 o! inst16[6]~25_combout $end
$var wire 1 p! DBUS[5]~input_o $end
$var wire 1 q! inst16[5]~26_combout $end
$var wire 1 r! DBUS[4]~input_o $end
$var wire 1 s! inst16[4]~27_combout $end
$var wire 1 t! DBUS[3]~input_o $end
$var wire 1 u! inst16[3]~28_combout $end
$var wire 1 v! DBUS[2]~input_o $end
$var wire 1 w! inst16[2]~29_combout $end
$var wire 1 x! DBUS[1]~input_o $end
$var wire 1 y! inst16[1]~30_combout $end
$var wire 1 z! DBUS[0]~input_o $end
$var wire 1 {! inst16[0]~31_combout $end
$var wire 1 |! inst|altsyncram_component|auto_generated|q_a [31] $end
$var wire 1 }! inst|altsyncram_component|auto_generated|q_a [30] $end
$var wire 1 ~! inst|altsyncram_component|auto_generated|q_a [29] $end
$var wire 1 !" inst|altsyncram_component|auto_generated|q_a [28] $end
$var wire 1 "" inst|altsyncram_component|auto_generated|q_a [27] $end
$var wire 1 #" inst|altsyncram_component|auto_generated|q_a [26] $end
$var wire 1 $" inst|altsyncram_component|auto_generated|q_a [25] $end
$var wire 1 %" inst|altsyncram_component|auto_generated|q_a [24] $end
$var wire 1 &" inst|altsyncram_component|auto_generated|q_a [23] $end
$var wire 1 '" inst|altsyncram_component|auto_generated|q_a [22] $end
$var wire 1 (" inst|altsyncram_component|auto_generated|q_a [21] $end
$var wire 1 )" inst|altsyncram_component|auto_generated|q_a [20] $end
$var wire 1 *" inst|altsyncram_component|auto_generated|q_a [19] $end
$var wire 1 +" inst|altsyncram_component|auto_generated|q_a [18] $end
$var wire 1 ," inst|altsyncram_component|auto_generated|q_a [17] $end
$var wire 1 -" inst|altsyncram_component|auto_generated|q_a [16] $end
$var wire 1 ." inst|altsyncram_component|auto_generated|q_a [15] $end
$var wire 1 /" inst|altsyncram_component|auto_generated|q_a [14] $end
$var wire 1 0" inst|altsyncram_component|auto_generated|q_a [13] $end
$var wire 1 1" inst|altsyncram_component|auto_generated|q_a [12] $end
$var wire 1 2" inst|altsyncram_component|auto_generated|q_a [11] $end
$var wire 1 3" inst|altsyncram_component|auto_generated|q_a [10] $end
$var wire 1 4" inst|altsyncram_component|auto_generated|q_a [9] $end
$var wire 1 5" inst|altsyncram_component|auto_generated|q_a [8] $end
$var wire 1 6" inst|altsyncram_component|auto_generated|q_a [7] $end
$var wire 1 7" inst|altsyncram_component|auto_generated|q_a [6] $end
$var wire 1 8" inst|altsyncram_component|auto_generated|q_a [5] $end
$var wire 1 9" inst|altsyncram_component|auto_generated|q_a [4] $end
$var wire 1 :" inst|altsyncram_component|auto_generated|q_a [3] $end
$var wire 1 ;" inst|altsyncram_component|auto_generated|q_a [2] $end
$var wire 1 <" inst|altsyncram_component|auto_generated|q_a [1] $end
$var wire 1 =" inst|altsyncram_component|auto_generated|q_a [0] $end
$var wire 1 >" inst|altsyncram_component|auto_generated|ram_block1a31_PORTADATAOUT_bus [0] $end
$var wire 1 ?" inst|altsyncram_component|auto_generated|ram_block1a30_PORTADATAOUT_bus [0] $end
$var wire 1 @" inst|altsyncram_component|auto_generated|ram_block1a29_PORTADATAOUT_bus [0] $end
$var wire 1 A" inst|altsyncram_component|auto_generated|ram_block1a28_PORTADATAOUT_bus [0] $end
$var wire 1 B" inst|altsyncram_component|auto_generated|ram_block1a27_PORTADATAOUT_bus [0] $end
$var wire 1 C" inst|altsyncram_component|auto_generated|ram_block1a26_PORTADATAOUT_bus [0] $end
$var wire 1 D" inst|altsyncram_component|auto_generated|ram_block1a25_PORTADATAOUT_bus [0] $end
$var wire 1 E" inst|altsyncram_component|auto_generated|ram_block1a24_PORTADATAOUT_bus [0] $end
$var wire 1 F" inst|altsyncram_component|auto_generated|ram_block1a23_PORTADATAOUT_bus [0] $end
$var wire 1 G" inst|altsyncram_component|auto_generated|ram_block1a22_PORTADATAOUT_bus [0] $end
$var wire 1 H" inst|altsyncram_component|auto_generated|ram_block1a21_PORTADATAOUT_bus [0] $end
$var wire 1 I" inst|altsyncram_component|auto_generated|ram_block1a20_PORTADATAOUT_bus [0] $end
$var wire 1 J" inst|altsyncram_component|auto_generated|ram_block1a19_PORTADATAOUT_bus [0] $end
$var wire 1 K" inst|altsyncram_component|auto_generated|ram_block1a18_PORTADATAOUT_bus [0] $end
$var wire 1 L" inst|altsyncram_component|auto_generated|ram_block1a17_PORTADATAOUT_bus [0] $end
$var wire 1 M" inst|altsyncram_component|auto_generated|ram_block1a16_PORTADATAOUT_bus [0] $end
$var wire 1 N" inst|altsyncram_component|auto_generated|ram_block1a15_PORTADATAOUT_bus [0] $end
$var wire 1 O" inst|altsyncram_component|auto_generated|ram_block1a14_PORTADATAOUT_bus [0] $end
$var wire 1 P" inst|altsyncram_component|auto_generated|ram_block1a13_PORTADATAOUT_bus [0] $end
$var wire 1 Q" inst|altsyncram_component|auto_generated|ram_block1a12_PORTADATAOUT_bus [0] $end
$var wire 1 R" inst|altsyncram_component|auto_generated|ram_block1a11_PORTADATAOUT_bus [0] $end
$var wire 1 S" inst|altsyncram_component|auto_generated|ram_block1a10_PORTADATAOUT_bus [0] $end
$var wire 1 T" inst|altsyncram_component|auto_generated|ram_block1a9_PORTADATAOUT_bus [0] $end
$var wire 1 U" inst|altsyncram_component|auto_generated|ram_block1a8_PORTADATAOUT_bus [0] $end
$var wire 1 V" inst|altsyncram_component|auto_generated|ram_block1a7_PORTADATAOUT_bus [0] $end
$var wire 1 W" inst|altsyncram_component|auto_generated|ram_block1a6_PORTADATAOUT_bus [0] $end
$var wire 1 X" inst|altsyncram_component|auto_generated|ram_block1a5_PORTADATAOUT_bus [0] $end
$var wire 1 Y" inst|altsyncram_component|auto_generated|ram_block1a4_PORTADATAOUT_bus [0] $end
$var wire 1 Z" inst|altsyncram_component|auto_generated|ram_block1a3_PORTADATAOUT_bus [0] $end
$var wire 1 [" inst|altsyncram_component|auto_generated|ram_block1a2_PORTADATAOUT_bus [0] $end
$var wire 1 \" inst|altsyncram_component|auto_generated|ram_block1a1_PORTADATAOUT_bus [0] $end
$var wire 1 ]" inst|altsyncram_component|auto_generated|ram_block1a0_PORTADATAOUT_bus [0] $end
$upscope $end
$upscope $end
$enddefinitions $end
#0
$dumpvars
b1111111100000000 !
0"
b10101011110011011010101111001101 #
b0 $
0%
1&
1F
0E
1D
1C
0B
0A
1@
1?
1>
1=
0<
1;
0:
19
08
17
16
05
14
13
02
01
10
1/
1.
1-
0,
1+
0*
1)
0(
1'
xG
0H
1I
xJ
1K
1L
1M
0N
0O
0P
0Q
0R
0S
0T
0U
0V
0W
0X
0Y
0Z
0[
1\
z]
z^
z_
z`
za
zb
zc
zd
ze
zf
zg
zh
zi
zj
zk
zl
zm
zn
zo
zp
zq
zr
zs
zt
zu
zv
zw
zx
zy
zz
z{
z|
1}
0~
0!!
1"!
0#!
0$!
0%!
0&!
1'!
1(!
0)!
0*!
0+!
0,!
0-!
0.!
1/!
10!
11!
12!
13!
14!
15!
06!
07!
08!
09!
0:!
0;!
0<!
1=!
1>!
0?!
0@!
1A!
1B!
0C!
0D!
1E!
1F!
1G!
1H!
1I!
1J!
0K!
1L!
1M!
0N!
0O!
0P!
0Q!
1R!
1S!
1T!
1U!
0V!
0W!
1X!
1Y!
1Z!
1[!
0\!
0]!
0^!
1_!
1`!
0a!
0b!
1c!
1d!
0e!
0f!
1g!
1h!
1i!
1j!
1k!
1l!
1m!
1n!
1o!
0p!
0q!
0r!
0s!
1t!
1u!
1v!
1w!
0x!
0y!
1z!
1{!
0="
0<"
0;"
0:"
09"
08"
07"
06"
05"
04"
03"
02"
01"
00"
0/"
0."
0-"
0,"
0+"
0*"
0)"
0("
0'"
0&"
0%"
0$"
0#"
0""
0!"
0~!
0}!
0|!
0>"
0?"
0@"
0A"
0B"
0C"
0D"
0E"
0F"
0G"
0H"
0I"
0J"
0K"
0L"
0M"
0N"
0O"
0P"
0Q"
0R"
0S"
0T"
0U"
0V"
0W"
0X"
0Y"
0Z"
0["
0\"
0]"
$end
#10000
1"
1%!
1&!
0G
#20000
0"
0%!
0&!
1G
#30000
1"
1%!
1&!
0G
#40000
0"
0%!
0&!
1G
#50000
1"
1%!
1&!
0G
#60000
0"
0%!
0&!
1G
#70000
1"
1%!
1&!
0G
#80000
0"
0%!
0&!
1G
#90000
1"
1%!
1&!
0G
#100000
0"
0%!
0&!
1G
#110000
1"
1%!
1&!
0G
#120000
0"
0%!
0&!
1G
#130000
1"
1%!
1&!
0G
#140000
0"
0%!
0&!
1G
#150000
1"
1%!
1&!
0G
#160000
0"
0%!
0&!
1G
#170000
1"
1%!
1&!
0G
#180000
0"
0%!
0&!
1G
#190000
1"
1%!
1&!
0G
#200000
0"
0%!
0&!
1G
#210000
1"
1%!
1&!
0G
#220000
0"
0%!
0&!
1G
#230000
1"
1%!
1&!
0G
#240000
b111111100000000 !
b11111100000000 !
b1111100000000 !
b111100000000 !
b11100000000 !
b1100000000 !
b100000000 !
b0 !
bz0101011110011011010101111001101 #
bz101011110011011010101111001101 #
bz01011110011011010101111001101 #
bz1011110011011010101111001101 #
bz011110011011010101111001101 #
bz11110011011010101111001101 #
bz1110011011010101111001101 #
bz110011011010101111001101 #
bz10011011010101111001101 #
bz0011011010101111001101 #
bz011011010101111001101 #
bz11011010101111001101 #
bz1011010101111001101 #
bz011010101111001101 #
bz11010101111001101 #
bz1010101111001101 #
bz010101111001101 #
bz10101111001101 #
bz0101111001101 #
bz101111001101 #
bz01111001101 #
bz1111001101 #
bz111001101 #
bz11001101 #
bz1001101 #
bz001101 #
bz01101 #
bz1101 #
bz101 #
bz01 #
bz1 #
bz #
0&
0"
zF
zE
zD
zC
zB
zA
z@
z?
z>
z=
z<
z;
z:
z9
z8
z7
z6
z5
z4
z3
z2
z1
z0
z/
z.
z-
z,
z+
z*
z)
z(
z'
zz!
zx!
zv!
zt!
zr!
zp!
zn!
zk!
zi!
zg!
ze!
zc!
za!
z_!
z]!
zZ!
zX!
zV!
zT!
zR!
zP!
zN!
zL!
zI!
zG!
zE!
zC!
zA!
z?!
z=!
z;!
z'!
0/!
00!
01!
02!
03!
04!
05!
0\
0}
0%!
0&!
1G
1y!
1s!
1q!
1f!
1b!
1^!
1W!
1Q!
1O!
1D!
1@!
1<!
0"!
#250000
1"
1%!
1&!
0G
#260000
0"
0%!
0&!
1G
#270000
1"
1%!
1&!
0G
#280000
0"
0%!
0&!
1G
#290000
1"
1%!
1&!
0G
#300000
0"
0%!
0&!
1G
#310000
1"
1%!
1&!
0G
#320000
0"
0%!
0&!
1G
#330000
1"
1%!
1&!
0G
#340000
0"
0%!
0&!
1G
#350000
1"
1%!
1&!
0G
#360000
0"
0%!
0&!
1G
#370000
1"
1%!
1&!
0G
#380000
0"
0%!
0&!
1G
#390000
1"
1%!
1&!
0G
#400000
1%
b1000000000000000 !
b1100000000000000 !
b1110000000000000 !
b1111000000000000 !
b1111100000000000 !
b1111110000000000 !
b1111111000000000 !
b1111111100000000 !
0"
1#!
1/!
10!
11!
12!
13!
14!
15!
1\
0%!
0&!
1G
1$!
0|
0{
0z
0y
0x
0w
0v
0u
0t
0s
0r
0q
0p
0o
0n
0m
0l
0k
0j
0i
0h
0g
0f
0e
0d
0c
0b
0a
0`
0_
0^
0]
0F
0E
0D
0C
0B
0A
0@
0?
0>
0=
0<
0;
0:
09
08
07
06
05
04
03
02
01
00
0/
0.
0-
0,
0+
0*
0)
0(
0'
0z!
0x!
0v!
0t!
0r!
0p!
0n!
0k!
0i!
0g!
0e!
0c!
0a!
0_!
0]!
0Z!
0X!
0V!
0T!
0R!
0P!
0N!
0L!
0I!
0G!
0E!
0C!
0A!
0?!
0=!
0;!
0'!
#410000
1"
1%!
1&!
0G
#420000
0"
0%!
0&!
1G
#430000
1"
1%!
1&!
0G
1]"
1["
1Z"
1W"
1V"
1="
1;"
1:"
17"
16"
1|
1z
1y
1v
1u
1F
1D
1C
1@
1?
1z!
1v!
1t!
1n!
1k!
#440000
0"
0%!
0&!
1G
#450000
1"
1%!
1&!
0G
#460000
0"
0%!
0&!
1G
#470000
1"
1%!
1&!
0G
#480000
0"
0%!
0&!
1G
#490000
1"
1%!
1&!
0G
#500000
0"
0%!
0&!
1G
#510000
1"
1%!
1&!
0G
#520000
0"
0%!
0&!
1G
#530000
1"
1%!
1&!
0G
#540000
0"
0%!
0&!
1G
#550000
1"
1%!
1&!
0G
#560000
0"
0%!
0&!
1G
#570000
1"
1%!
1&!
0G
#580000
0"
0%!
0&!
1G
#590000
1"
1%!
1&!
0G
#600000
0"
0%!
0&!
1G
#610000
1"
1%!
1&!
0G
#620000
0"
0%!
0&!
1G
#630000
0%
b111111100000000 !
b11111100000000 !
b1111100000000 !
b111100000000 !
b11100000000 !
b1100000000 !
b100000000 !
b0 !
1"
0#!
0/!
00!
01!
02!
03!
04!
05!
0\
1%!
1&!
0G
0$!
z|
z{
zz
zy
zx
zw
zv
zu
zt
zs
zr
zq
zp
zo
zn
zm
zl
zk
zj
zi
zh
zg
zf
ze
zd
zc
zb
za
z`
z_
z^
z]
zF
zE
zD
zC
zB
zA
z@
z?
z>
z=
z<
z;
z:
z9
z8
z7
z6
z5
z4
z3
z2
z1
z0
z/
z.
z-
z,
z+
z*
z)
z(
z'
zz!
zx!
zv!
zt!
zr!
zp!
zn!
zk!
zi!
zg!
ze!
zc!
za!
z_!
z]!
zZ!
zX!
zV!
zT!
zR!
zP!
zN!
zL!
zI!
zG!
zE!
zC!
zA!
z?!
z=!
z;!
z'!
#640000
0"
0%!
0&!
1G
#650000
1"
1%!
1&!
0G
0]"
0["
0Z"
0W"
0V"
0="
0;"
0:"
07"
06"
#660000
0"
0%!
0&!
1G
#670000
1"
1%!
1&!
0G
#680000
0"
0%!
0&!
1G
#690000
1"
1%!
1&!
0G
#700000
0"
0%!
0&!
1G
#710000
1"
1%!
1&!
0G
#720000
0"
0%!
0&!
1G
#730000
1"
1%!
1&!
0G
#740000
0"
0%!
0&!
1G
#750000
1"
1%!
1&!
0G
#760000
0"
0%!
0&!
1G
#770000
1"
1%!
1&!
0G
#780000
0"
0%!
0&!
1G
#790000
1"
1%!
1&!
0G
#800000
0"
0%!
0&!
1G
#810000
1"
1%!
1&!
0G
#820000
0"
0%!
0&!
1G
#830000
1"
1%!
1&!
0G
#840000
0"
0%!
0&!
1G
#850000
1"
1%!
1&!
0G
#860000
0"
0%!
0&!
1G
#870000
1"
1%!
1&!
0G
#880000
0"
0%!
0&!
1G
#890000
1"
1%!
1&!
0G
#900000
0"
0%!
0&!
1G
#910000
1"
1%!
1&!
0G
#920000
0"
0%!
0&!
1G
#930000
1"
1%!
1&!
0G
#940000
0"
0%!
0&!
1G
#950000
1"
1%!
1&!
0G
#960000
0"
0%!
0&!
1G
#970000
1"
1%!
1&!
0G
#980000
0"
0%!
0&!
1G
#990000
1"
1%!
1&!
0G
