simulation/qsim/ARP.msim.vcd
$comment
	File created using the following command:
		vcd file ARP.msim.vcd -direction
$end
$date
	Tue Mar 14 04:42:37 2023
$end
$version
	ModelSim Version 10.1d
$end
$timescale
	1ps
$end
$scope module sramif_vlg_vec_tst $end
$var reg 32 ! ABUS [31:0] $end
$var reg 32 " DBUS [31:0] $end
$var reg 2 # LEN [1:0] $end
$var reg 1 $ RD $end
$var reg 1 % WR $end
$var wire 1 & address [12] $end
$var wire 1 ' address [11] $end
$var wire 1 ( address [10] $end
$var wire 1 ) address [9] $end
$var wire 1 * address [8] $end
$var wire 1 + address [7] $end
$var wire 1 , address [6] $end
$var wire 1 - address [5] $end
$var wire 1 . address [4] $end
$var wire 1 / address [3] $end
$var wire 1 0 address [2] $end
$var wire 1 1 address [1] $end
$var wire 1 2 address [0] $end
$var wire 1 3 byteena [3] $end
$var wire 1 4 byteena [2] $end
$var wire 1 5 byteena [1] $end
$var wire 1 6 byteena [0] $end
$var wire 1 7 data [31] $end
$var wire 1 8 data [30] $end
$var wire 1 9 data [29] $end
$var wire 1 : data [28] $end
$var wire 1 ; data [27] $end
$var wire 1 < data [26] $end
$var wire 1 = data [25] $end
$var wire 1 > data [24] $end
$var wire 1 ? data [23] $end
$var wire 1 @ data [22] $end
$var wire 1 A data [21] $end
$var wire 1 B data [20] $end
$var wire 1 C data [19] $end
$var wire 1 D data [18] $end
$var wire 1 E data [17] $end
$var wire 1 F data [16] $end
$var wire 1 G data [15] $end
$var wire 1 H data [14] $end
$var wire 1 I data [13] $end
$var wire 1 J data [12] $end
$var wire 1 K data [11] $end
$var wire 1 L data [10] $end
$var wire 1 M data [9] $end
$var wire 1 N data [8] $end
$var wire 1 O data [7] $end
$var wire 1 P data [6] $end
$var wire 1 Q data [5] $end
$var wire 1 R data [4] $end
$var wire 1 S data [3] $end
$var wire 1 T data [2] $end
$var wire 1 U data [1] $end
$var wire 1 V data [0] $end
$var wire 1 W rdd $end
$var wire 1 X rden $end
$var wire 1 Y shft8 $end
$var wire 1 Z shft16 $end
$var wire 1 [ wren $end
$var wire 1 \ sampler $end
$scope module i1 $end
$var wire 1 ] gnd $end
$var wire 1 ^ vcc $end
$var wire 1 _ unknown $end
$var tri1 1 ` devclrn $end
$var tri1 1 a devpor $end
$var tri1 1 b devoe $end
$var wire 1 c ABUS[15]~input_o $end
$var wire 1 d wren~output_o $end
$var wire 1 e rden~output_o $end
$var wire 1 f shft16~output_o $end
$var wire 1 g shft8~output_o $end
$var wire 1 h rdd~output_o $end
$var wire 1 i address[12]~output_o $end
$var wire 1 j address[11]~output_o $end
$var wire 1 k address[10]~output_o $end
$var wire 1 l address[9]~output_o $end
$var wire 1 m address[8]~output_o $end
$var wire 1 n address[7]~output_o $end
$var wire 1 o address[6]~output_o $end
$var wire 1 p address[5]~output_o $end
$var wire 1 q address[4]~output_o $end
$var wire 1 r address[3]~output_o $end
$var wire 1 s address[2]~output_o $end
$var wire 1 t address[1]~output_o $end
$var wire 1 u address[0]~output_o $end
$var wire 1 v byteena[3]~output_o $end
$var wire 1 w byteena[2]~output_o $end
$var wire 1 x byteena[1]~output_o $end
$var wire 1 y byteena[0]~output_o $end
$var wire 1 z data[31]~output_o $end
$var wire 1 { data[30]~output_o $end
$var wire 1 | data[29]~output_o $end
$var wire 1 } data[28]~output_o $end
$var wire 1 ~ data[27]~output_o $end
$var wire 1 !! data[26]~output_o $end
$var wire 1 "! data[25]~output_o $end
$var wire 1 #! data[24]~output_o $end
$var wire 1 $! data[23]~output_o $end
$var wire 1 %! data[22]~output_o $end
$var wire 1 &! data[21]~output_o $end
$var wire 1 '! data[20]~output_o $end
$var wire 1 (! data[19]~output_o $end
$var wire 1 )! data[18]~output_o $end
$var wire 1 *! data[17]~output_o $end
$var wire 1 +! data[16]~output_o $end
$var wire 1 ,! data[15]~output_o $end
$var wire 1 -! data[14]~output_o $end
$var wire 1 .! data[13]~output_o $end
$var wire 1 /! data[12]~output_o $end
$var wire 1 0! data[11]~output_o $end
$var wire 1 1! data[10]~output_o $end
$var wire 1 2! data[9]~output_o $end
$var wire 1 3! data[8]~output_o $end
$var wire 1 4! data[7]~output_o $end
$var wire 1 5! data[6]~output_o $end
$var wire 1 6! data[5]~output_o $end
$var wire 1 7! data[4]~output_o $end
$var wire 1 8! data[3]~output_o $end
$var wire 1 9! data[2]~output_o $end
$var wire 1 :! data[1]~output_o $end
$var wire 1 ;! data[0]~output_o $end
$var wire 1 <! WR~input_o $end
$var wire 1 =! ABUS[31]~input_o $end
$var wire 1 >! ABUS[28]~input_o $end
$var wire 1 ?! ABUS[29]~input_o $end
$var wire 1 @! ABUS[30]~input_o $end
$var wire 1 A! inst|inst3~0_combout $end
$var wire 1 B! ABUS[23]~input_o $end
$var wire 1 C! ABUS[20]~input_o $end
$var wire 1 D! ABUS[21]~input_o $end
$var wire 1 E! ABUS[22]~input_o $end
$var wire 1 F! inst|inst3~2_combout $end
$var wire 1 G! ABUS[27]~input_o $end
$var wire 1 H! ABUS[24]~input_o $end
$var wire 1 I! ABUS[26]~input_o $end
$var wire 1 J! ABUS[25]~input_o $end
$var wire 1 K! inst|inst3~1_combout $end
$var wire 1 L! ABUS[16]~input_o $end
$var wire 1 M! ABUS[19]~input_o $end
$var wire 1 N! ABUS[18]~input_o $end
$var wire 1 O! ABUS[17]~input_o $end
$var wire 1 P! inst|inst3~3_combout $end
$var wire 1 Q! inst|inst3~4_combout $end
$var wire 1 R! inst3~combout $end
$var wire 1 S! RD~input_o $end
$var wire 1 T! inst2~combout $end
$var wire 1 U! ABUS[1]~input_o $end
$var wire 1 V! ABUS[0]~input_o $end
$var wire 1 W! ABUS[14]~input_o $end
$var wire 1 X! ABUS[13]~input_o $end
$var wire 1 Y! ABUS[12]~input_o $end
$var wire 1 Z! ABUS[11]~input_o $end
$var wire 1 [! ABUS[10]~input_o $end
$var wire 1 \! ABUS[9]~input_o $end
$var wire 1 ]! ABUS[8]~input_o $end
$var wire 1 ^! ABUS[7]~input_o $end
$var wire 1 _! ABUS[6]~input_o $end
$var wire 1 `! ABUS[5]~input_o $end
$var wire 1 a! ABUS[4]~input_o $end
$var wire 1 b! ABUS[3]~input_o $end
$var wire 1 c! ABUS[2]~input_o $end
$var wire 1 d! LEN[1]~input_o $end
$var wire 1 e! LEN[0]~input_o $end
$var wire 1 f! inst10|inst~0_combout $end
$var wire 1 g! inst9|inst~combout $end
$var wire 1 h! inst8|inst~0_combout $end
$var wire 1 i! inst6|inst~0_combout $end
$var wire 1 j! DBUS[7]~input_o $end
$var wire 1 k! DBUS[23]~input_o $end
$var wire 1 l! inst7|inst6|inst[23]~0_combout $end
$var wire 1 m! DBUS[15]~input_o $end
$var wire 1 n! DBUS[31]~input_o $end
$var wire 1 o! inst7|inst7|inst[31]~0_combout $end
$var wire 1 p! inst7|inst7|inst[31]~1_combout $end
$var wire 1 q! DBUS[30]~input_o $end
$var wire 1 r! DBUS[14]~input_o $end
$var wire 1 s! inst7|inst7|inst[30]~2_combout $end
$var wire 1 t! DBUS[6]~input_o $end
$var wire 1 u! DBUS[22]~input_o $end
$var wire 1 v! inst7|inst6|inst[22]~1_combout $end
$var wire 1 w! inst7|inst7|inst[30]~3_combout $end
$var wire 1 x! DBUS[29]~input_o $end
$var wire 1 y! DBUS[13]~input_o $end
$var wire 1 z! inst7|inst7|inst[29]~4_combout $end
$var wire 1 {! DBUS[5]~input_o $end
$var wire 1 |! DBUS[21]~input_o $end
$var wire 1 }! inst7|inst6|inst[21]~2_combout $end
$var wire 1 ~! inst7|inst7|inst[29]~5_combout $end
$var wire 1 !" DBUS[12]~input_o $end
$var wire 1 "" DBUS[28]~input_o $end
$var wire 1 #" inst7|inst7|inst[28]~6_combout $end
$var wire 1 $" DBUS[4]~input_o $end
$var wire 1 %" DBUS[20]~input_o $end
$var wire 1 &" inst7|inst6|inst[20]~3_combout $end
$var wire 1 '" inst7|inst7|inst[28]~7_combout $end
$var wire 1 (" DBUS[3]~input_o $end
$var wire 1 )" DBUS[19]~input_o $end
$var wire 1 *" inst7|inst6|inst[19]~4_combout $end
$var wire 1 +" DBUS[11]~input_o $end
$var wire 1 ," DBUS[27]~input_o $end
$var wire 1 -" inst7|inst7|inst[27]~8_combout $end
$var wire 1 ." inst7|inst7|inst[27]~9_combout $end
$var wire 1 /" DBUS[10]~input_o $end
$var wire 1 0" DBUS[26]~input_o $end
$var wire 1 1" inst7|inst7|inst[26]~10_combout $end
$var wire 1 2" DBUS[2]~input_o $end
$var wire 1 3" DBUS[18]~input_o $end
$var wire 1 4" inst7|inst6|inst[18]~5_combout $end
$var wire 1 5" inst7|inst7|inst[26]~11_combout $end
$var wire 1 6" DBUS[1]~input_o $end
$var wire 1 7" DBUS[17]~input_o $end
$var wire 1 8" inst7|inst6|inst[17]~6_combout $end
$var wire 1 9" DBUS[25]~input_o $end
$var wire 1 :" DBUS[9]~input_o $end
$var wire 1 ;" inst7|inst7|inst[25]~12_combout $end
$var wire 1 <" inst7|inst7|inst[25]~13_combout $end
$var wire 1 =" DBUS[0]~input_o $end
$var wire 1 >" DBUS[16]~input_o $end
$var wire 1 ?" inst7|inst6|inst[16]~7_combout $end
$var wire 1 @" DBUS[8]~input_o $end
$var wire 1 A" DBUS[24]~input_o $end
$var wire 1 B" inst7|inst7|inst[24]~14_combout $end
$var wire 1 C" inst7|inst7|inst[24]~15_combout $end
$var wire 1 D" inst7|inst7|inst[23]~16_combout $end
$var wire 1 E" inst7|inst7|inst[22]~17_combout $end
$var wire 1 F" inst7|inst7|inst[21]~18_combout $end
$var wire 1 G" inst7|inst7|inst[20]~19_combout $end
$var wire 1 H" inst7|inst7|inst[19]~20_combout $end
$var wire 1 I" inst7|inst7|inst[18]~21_combout $end
$var wire 1 J" inst7|inst7|inst[17]~22_combout $end
$var wire 1 K" inst7|inst7|inst[16]~23_combout $end
$var wire 1 L" inst7|inst7|inst[15]~24_combout $end
$var wire 1 M" inst7|inst7|inst[14]~25_combout $end
$var wire 1 N" inst7|inst7|inst[13]~26_combout $end
$var wire 1 O" inst7|inst7|inst[12]~27_combout $end
$var wire 1 P" inst7|inst7|inst[11]~28_combout $end
$var wire 1 Q" inst7|inst7|inst[10]~29_combout $end
$var wire 1 R" inst7|inst7|inst[9]~30_combout $end
$var wire 1 S" inst7|inst7|inst[8]~31_combout $end
$var wire 1 T" inst7|inst7|inst1[7]~0_combout $end
$var wire 1 U" inst7|inst7|inst1[6]~1_combout $end
$var wire 1 V" inst7|inst7|inst1[5]~2_combout $end
$var wire 1 W" inst7|inst7|inst1[4]~3_combout $end
$var wire 1 X" inst7|inst7|inst1[3]~4_combout $end
$var wire 1 Y" inst7|inst7|inst1[2]~5_combout $end
$var wire 1 Z" inst7|inst7|inst1[1]~6_combout $end
$var wire 1 [" inst7|inst7|inst1[0]~7_combout $end
$upscope $end
$upscope $end
$enddefinitions $end
#0
$dumpvars
b101010101000000001001100110011 !
b11111111111111111111111111111111 "
b0 #
1$
1%
02
01
10
1/
0.
0-
1,
1+
0*
0)
1(
0'
0&
06
05
04
13
0V
0U
0T
0S
0R
0Q
0P
0O
0N
0M
0L
0K
0J
0I
0H
0G
0F
0E
0D
0C
0B
0A
0@
0?
1>
1=
1<
1;
1:
19
18
17
0W
0X
1Y
1Z
0[
x\
0]
1^
x_
1`
1a
1b
0c
0d
0e
1f
1g
0h
0i
0j
1k
0l
0m
1n
1o
0p
0q
1r
1s
0t
0u
1v
0w
0x
0y
1z
1{
1|
1}
1~
1!!
1"!
1#!
0$!
0%!
0&!
0'!
0(!
0)!
0*!
0+!
0,!
0-!
0.!
0/!
00!
01!
02!
03!
04!
05!
06!
07!
08!
09!
0:!
0;!
1<!
0=!
0>!
1?!
0@!
0A!
1B!
0C!
1D!
0E!
0F!
1G!
0H!
0I!
1J!
0K!
0L!
0M!
0N!
0O!
1P!
0Q!
0R!
1S!
0T!
1U!
1V!
0W!
0X!
1Y!
0Z!
0[!
1\!
1]!
0^!
0_!
1`!
1a!
0b!
0c!
0d!
0e!
1f!
0g!
0h!
0i!
1j!
1k!
1l!
1m!
1n!
0o!
1p!
1q!
1r!
0s!
1t!
1u!
1v!
1w!
1x!
1y!
0z!
1{!
1|!
1}!
1~!
1!"
1""
0#"
1$"
1%"
1&"
1'"
1("
1)"
1*"
1+"
1,"
0-"
1."
1/"
10"
01"
12"
13"
14"
15"
16"
17"
18"
19"
1:"
0;"
1<"
1="
1>"
1?"
1@"
1A"
0B"
1C"
0D"
0E"
0F"
0G"
0H"
0I"
0J"
0K"
0L"
0M"
0N"
0O"
0P"
0Q"
0R"
0S"
0T"
0U"
0V"
0W"
0X"
0Y"
0Z"
0["
$end
#5000
b10101010101000000001001100110011 !
b11101010101000000001001100110011 !
b11111010101000000001001100110011 !
b11110010101000000001001100110011 !
b11110000101000000001001100110011 !
b11110000001000000001001100110011 !
b11110000011000000001001100110011 !
b11110000010000000001001100110011 !
b11110000010001000001001100110011 !
b11110000010001000101001100110011 !
b11110000010001000111001100110011 !
b11110000010001000110001100110011 !
b11110000010001000110101100110011 !
b11110000010001000110101110110011 !
b11110000010001000110101111110011 !
b11110000010001000110101111010011 !
b11110000010001000110101111010111 !
1N!
0D!
1E!
0B!
0J!
0G!
1>!
1@!
1=!
0\
1c!
0`!
1_!
1^!
1Z!
0Y!
1X!
1W!
0P!
1K!
1u
0r
1q
1p
1l
0k
1j
1i
12
0/
1.
1-
1)
0(
1'
1&
#10000
b11110001010001000110101111010111 !
b11110001010011000110101111010111 !
b11110001010011100110101111010111 !
b11110001010011110110101111010111 !
b11110001010011111110101111010111 !
b11110001010011111110111111010111 !
b11110001010011111110111011010111 !
b1110001010011111110111011010111 !
b1110011010011111110111011010111 !
b1110011110011111110111011010111 !
b1110011111011111110111011010111 !
b1110011111011111010111011010111 !
b1110011111011111011111011010111 !
b1110011111011111011011011010111 !
b1110011111011111011011001010111 !
b1110011111011111011011001110111 !
b1110011111011111011011001110011 !
1c
1L!
1O!
1M!
1D!
1B!
1H!
1J!
0=!
1\
0c!
1`!
0^!
0]!
1[!
0Z!
1Y!
0W!
0K!
0u
1r
0p
0o
1m
0l
1k
0i
02
1/
0-
0,
1*
0)
1(
0&
#15000
b1110011111111111011011001110011 !
b1110011111111111011011001100011 !
b1110011111111111011011001100001 !
b1110011111111111011011001100000 !
b1100011111111111011011001100000 !
b1100011101111111011011001100000 !
b1100011101111111001011001100000 !
b1100011101111111001011000100000 !
b1100011101101111001011000100000 !
b1100011101101011001011000100000 !
b1100011101101001001011000100000 !
b1100011101101000001011000100000 !
b1100011101101000001001000100000 !
b1100011101101000001001100100000 !
b11100011101101000001001100100000 !
b11100001101101000001001100100000 !
b11100001100101000001001100100000 !
b11100001100101000101001100100000 !
b11100001100101000100001100100000 !
b11100001100101000100101100100000 !
b11100001100101000100101110100000 !
b11100001100101000100101110100100 !
0c
0L!
0O!
0M!
1C!
0D!
0E!
0J!
0>!
1=!
0\
0V!
0U!
1c!
0a!
0_!
1^!
1]!
0[!
1Z!
0Y!
0X!
1W!
1B"
1;"
11"
1-"
1#"
1z!
1s!
1o!
0g
0f
1u
0s
0q
1p
1o
0m
1l
0k
0j
1i
0Y
0Z
12
00
0.
1-
1,
0*
1)
0(
0'
1&
1["
1Z"
1Y"
1X"
1W"
1V"
1U"
1T"
1S"
1R"
1Q"
1P"
1O"
1N"
1M"
1L"
1K"
1J"
1I"
1H"
1G"
1F"
1E"
1D"
0C"
0<"
05"
0."
0'"
0~!
0w!
0p!
1i!
0f!
1;!
1:!
19!
18!
17!
16!
15!
14!
13!
12!
11!
10!
1/!
1.!
1-!
1,!
1+!
1*!
1)!
1(!
1'!
1&!
1%!
1$!
0#!
0"!
0!!
0~
0}
0|
0{
0z
1y
0v
1V
1U
1T
1S
1R
1Q
1P
1O
1N
1M
1L
1K
1J
1I
1H
1G
1F
1E
1D
1C
1B
1A
1@
1?
0>
0=
0<
0;
0:
09
08
07
16
03
1C"
1<"
15"
1."
1'"
1~!
1w!
1p!
1#!
1"!
1!!
1~
1}
1|
1{
1z
1>
1=
1<
1;
1:
19
18
17
#20000
b11100101100101000100101110100100 !
b11100101100101000100100110100100 !
b1 #
b10100101100101000100100110100100 !
b10101101100101000100100110100100 !
b10101101100100000100100110100100 !
b10101100100100000100100110100100 !
b10101100000100000100100110100100 !
b10101100000100000100100110110100 !
b10101100010100000100100110110100 !
b10101100010100000100100111110100 !
b10101100010100100100100111110100 !
b10101100010100101100100111110100 !
b10101100010100101100110111110100 !
b10101110010100101100110111110100 !
b10101110011100101100110111110100 !
b10101110011100101000110111110100 !
b10101110011100101000110101110100 !
b10101110011100101000110101110000 !
1e!
1c
1O!
0N!
1D!
1E!
0B!
0H!
1J!
1I!
1G!
0@!
1\
0c!
1a!
1_!
0^!
0\!
1[!
0W!
0u
1s
1q
0p
0n
1m
0i
02
10
1.
0-
0+
1*
0&
1h!
1x
15
#25000
b10001110011100101000110101110000 !
b10001110011100101000110101111000 !
b10001110011100101000110101011000 !
b10001110011100101000110101011001 !
b10011110011100101000110101011001 !
b10011110011110101000110101011001 !
b10011110011110101000110001011001 !
b10011110011110101001110001011001 !
b10011010011110101001110001011001 !
b10011010011110101001111001011001 !
b10010010011110101001111001011001 !
b10010010011111101001111001011001 !
b10010011011111101001111001011001 !
b10010011111111101001111001011001 !
b10010011111111101001111000011001 !
b10010011111111001001111000011001 !
b10010011111111000001111000011001 !
b10010001111111000001111000011001 !
b10010001111111000101111000011001 !
b10010001111111000101111010011001 !
0c
0O!
1N!
1M!
1B!
1H!
0J!
0I!
0G!
1>!
0?!
0\
1V!
1b!
0`!
0_!
1^!
0]!
1\!
1Y!
1W!
0B"
0;"
01"
0-"
0#"
0z!
0s!
0o!
1g
1t
0r
0q
1p
0o
1n
1k
1i
1Y
11
0/
0.
1-
0,
1+
1(
1&
0["
0Z"
0Y"
0X"
0W"
0V"
0U"
0T"
0i!
1g!
0;!
0:!
09!
08!
07!
06!
05!
04!
0y
1w
0V
0U
0T
0S
0R
0Q
0P
0O
06
14
#30000
b10010001111011000101111010011001 !
b10010001111011000101111010011011 !
b10010001111011000111111010011011 !
b10001111011000111111010011011 !
b10001101011000111111010011011 !
b10001100011000111111010011011 !
b10001100011000111111010011111 !
b10001100011000111111010111111 !
b1100011000111111010111111 !
b1100001000111111010111111 !
b1100001000111111110111111 !
b1100000000111111110111111 !
b100000000111111110111111 !
b111111110111111 !
b111111111111111 !
b1111111111111111 !
1c
0N!
0M!
0C!
0D!
0E!
0B!
0H!
0>!
0=!
1\
1U!
1c!
1`!
1_!
1]!
1X!
1P!
1F!
1K!
1A!
1f
1u
1r
1q
1o
1j
1Z
12
1/
1.
1,
1'
0S"
0R"
0Q"
0P"
0O"
0N"
0M"
0L"
0K"
0J"
0I"
0H"
0G"
0F"
0E"
0D"
0h!
0g!
1Q!
03!
02!
01!
00!
0/!
0.!
0-!
0,!
0+!
0*!
0)!
0(!
0'!
0&!
0%!
0$!
0x
0w
0N
0M
0L
0K
0J
0I
0H
0G
0F
0E
0D
0C
0B
0A
0@
0?
05
04
1T!
1R!
1h
1e
1d
1W
1X
1[
#35000
b11111111111111111 !
b1000000000000011111111111111111 !
b1000000000000011111111111101111 !
b1000000000000011111111111100111 !
b1000000000000011110111111100111 !
b1000100000000011110111111100111 !
b1001100000000011110111111100111 !
b1001100000000111110111111100111 !
b1001100000000111010111111100111 !
b1001100000000111010111101100111 !
b1001100000000111010111101100101 !
b1001100000000111000111101100101 !
b11001100000000111000111101100101 !
b11001100000000111000111101000101 !
b11011100000000111000111101000101 !
b11011100000000111000111001000101 !
b11011100000001111000111001000101 !
b11011100000001111000111000000101 !
1L!
1O!
1N!
1I!
1G!
1>!
1@!
1=!
0\
0U!
0b!
0a!
0`!
0_!
0^!
0]!
0Y!
0X!
0W!
0P!
0K!
0A!
0f
0t
0s
0r
0q
0p
0o
0k
0j
0i
0Z
01
00
0/
0.
0-
0,
0(
0'
0&
1S"
1R"
1Q"
1P"
1O"
1N"
1M"
1L"
1K"
1J"
1I"
1H"
1G"
1F"
1E"
1D"
1h!
1g!
0Q!
13!
12!
11!
10!
1/!
1.!
1-!
1,!
1+!
1*!
1)!
1(!
1'!
1&!
1%!
1$!
1x
1w
1N
1M
1L
1K
1J
1I
1H
1G
1F
1E
1D
1C
1B
1A
1@
1?
15
14
0T!
0R!
0h
0e
0d
0W
0X
0[
#40000
b11 #
b11011100000001111000011000000101 !
b10 #
b11011100000001111000001000000101 !
b11011100000001111000001000000100 !
b11011100000001111000000000000100 !
b11011100000001111000000000000000 !
b11011100000001110000000000000000 !
b11011100000001100000000000000000 !
b10011100000001100000000000000000 !
b10011000000001100000000000000000 !
b10010000000001100000000000000000 !
b10010000000001000000000000000000 !
b10000000001000000000000000000 !
b10000000000000000000000000000 !
0c
0L!
0O!
0N!
0I!
0G!
0@!
0=!
0e!
1d!
1\
0V!
0c!
0\!
0[!
0Z!
1P!
1K!
1B"
1;"
11"
1-"
1#"
1z!
1s!
1o!
0g
0u
0n
0m
0l
0Y
02
0+
0*
0)
1i!
1f!
1["
1Z"
1Y"
1X"
1W"
1V"
1U"
1T"
0C"
0<"
05"
0."
0'"
0~!
0w!
0p!
1y
1v
1;!
1:!
19!
18!
17!
16!
15!
14!
0#!
0"!
0!!
0~
0}
0|
0{
0z
16
13
1V
1U
1T
1S
1R
1Q
1P
1O
0>
0=
0<
0;
0:
09
08
07
1C"
1<"
15"
1."
1'"
1~!
1w!
1p!
1#!
1"!
1!!
1~
1}
1|
1{
1z
1>
1=
1<
1;
1:
19
18
17
#50000
b110000000000000000000000000000 !
b110000001000000000000000000000 !
b110001001000000000000000000000 !
b110001101000000000000000000000 !
b110001101000000001000000000000 !
b110001101000000001000010000000 !
b110001101000000001000010000010 !
b110001101000000001000110000010 !
b110001101000000001000111000010 !
b110001101000000001000111000110 !
b110001101000001001000111000110 !
b110001101000011001000111000110 !
b111001101000011001000111000110 !
b111001101000111001000111000110 !
b10111001101000111001000111000110 !
b10111001101001111001000111000110 !
1c
1L!
1O!
1N!
1D!
1B!
1H!
1G!
1?!
1=!
0\
1U!
1c!
1_!
1^!
1]!
1Y!
0P!
0F!
0K!
1f
1u
1q
1p
1o
1k
1Z
12
1.
1-
1,
1(
0["
0Z"
0Y"
0X"
0W"
0V"
0U"
0T"
0S"
0R"
0Q"
0P"
0O"
0N"
0M"
0L"
0i!
0h!
0g!
0f!
0;!
0:!
09!
08!
07!
06!
05!
04!
03!
02!
01!
00!
0/!
0.!
0-!
0,!
0y
0x
0w
0v
0V
0U
0T
0S
0R
0Q
0P
0O
0N
0M
0L
0K
0J
0I
0H
0G
06
05
04
03
#55000
b10111011101001111001000111000110 !
b10111011111001111001000111000110 !
b10111011111001111001000111001110 !
b10111011111001111011000111001110 !
b10101011111001111011000111001110 !
b10101011111001111011100111001110 !
b10101011111001111011110111001110 !
b11101011111001111011110111001110 !
b11001011111001111011110111001110 !
b11001010111001111011110111001110 !
b11001010111001111011110101001110 !
b11001010111001111011110001001110 !
b11001010111001111011110001001010 !
b11001010111001110011110001001010 !
b11001010111001100011110001001010 !
b11000010111001100011110001001010 !
b11000010111001000011110001001010 !
b11000010111000000011110001001010 !
0c
0L!
0O!
0N!
1E!
0H!
1J!
0G!
0>!
0?!
1@!
1\
0c!
1b!
0^!
0]!
1[!
1Z!
1X!
1P!
0u
1t
0p
0o
1m
1l
1j
02
11
0-
0,
1*
1)
1'
#60000
b11000010111010000011110001001010 !
b11000010111010000111110001001010 !
b11 #
b11000110111010000111110001001010 !
b11000110011010000111110001001010 !
b11000110011010000111110000001010 !
b11000100011010000111110000001010 !
b11000100011010000111110000000010 !
b11000100011010000111100000000010 !
b11100100011010000111100000000010 !
b11100101011010000111100000000010 !
b11100101011010000111100010000010 !
b11100101011010000111100010000110 !
b11100101011010010111100010000110 !
b11101101011010010111100010000110 !
b11101101011011010111100010000110 !
1e!
1L!
1N!
1M!
0B!
1H!
0J!
1I!
1G!
1?!
0\
1c!
0b!
0_!
1^!
0[!
1W!
0P!
1u
0t
0q
1p
0m
1i
12
01
0.
1-
0*
1&
#65000
b11101101011111010111100010000110 !
b11101101011111010111100010100110 !
b11101101011111010111100010100111 !
b11101101010111010111100010100111 !
b11111101010111010111100010100111 !
b10111101010111010111100010100111 !
b10111101010111011111100010100111 !
b10111101010111111111100010100111 !
b10111001010111111111100010100111 !
b10111011010111111111100010100111 !
b10111011010111111111100010101111 !
b10111011010111111111110010101111 !
b10111010010111111111110010101111 !
b10111010010111111111110000101111 !
b10111010010111101111110000101111 !
b10111010010110101111110000101111 !
1c
0L!
1O!
0N!
1C!
0D!
0H!
1J!
0I!
1>!
0@!
1\
1V!
1b!
1`!
0^!
1[!
0B"
0;"
01"
0-"
0#"
0z!
0s!
0o!
1g
1t
1r
0p
1m
1Y
11
1/
0-
1*
0K"
0J"
0I"
0H"
0G"
0F"
0E"
0D"
0+!
0*!
0)!
0(!
0'!
0&!
0%!
0$!
0F
0E
0D
0C
0B
0A
0@
0?
#70000
b10111010010110101111111000101111 !
b10111010010110101110111000101111 !
b10111010010110101110111000101101 !
b111010010110101110111000101101 !
b111010000110101110111000101101 !
b111010000110101100111000101101 !
b111010000110101100111100101101 !
b111010000100101100111100101101 !
b111010000100101000111100101101 !
b111010000100101000111101101101 !
b11010000100101000111101101101 !
b11010000100101000111101101001 !
b10010000100101000111101101001 !
b10010000000101000111101101001 !
b10010000000101000111101001001 !
b10010000000101000111101001000 !
b10000000101000111101001000 !
b10000000001000111101001000 !
b1000111101001000 !
b1000111101000000 !
b1000111111000000 !
0O!
0M!
0C!
0E!
0J!
0G!
0>!
0?!
0=!
0\
0V!
0U!
0c!
0b!
0`!
1_!
1^!
1]!
1\!
0Y!
0X!
0W!
1P!
1F!
1K!
1A!
1B"
1;"
11"
1-"
1#"
1z!
1s!
1o!
0g
0f
0u
0t
0r
1q
1p
1o
1n
0k
0j
0i
0Y
0Z
02
01
0/
1.
1-
1,
1+
0(
0'
0&
1["
1Z"
1Y"
1X"
1W"
1V"
1U"
1T"
1S"
1R"
1Q"
1P"
1O"
1N"
1M"
1L"
1K"
1J"
1I"
1H"
1G"
1F"
1E"
1D"
0C"
0<"
05"
0."
0'"
0~!
0w!
0p!
1Q!
1;!
1:!
19!
18!
17!
16!
15!
14!
13!
12!
11!
10!
1/!
1.!
1-!
1,!
1+!
1*!
1)!
1(!
1'!
1&!
1%!
1$!
0#!
0"!
0!!
0~
0}
0|
0{
0z
1V
1U
1T
1S
1R
1Q
1P
1O
1N
1M
1L
1K
1J
1I
1H
1G
1F
1E
1D
1C
1B
1A
1@
1?
0>
0=
0<
0;
0:
09
08
07
1C"
1<"
15"
1."
1'"
1~!
1w!
1p!
1#!
1"!
1!!
1~
1}
1|
1{
1z
1>
1=
1<
1;
1:
19
18
17
1T!
1R!
1h
1e
1d
1W
1X
1[
#75000
b1000111111010000 !
b1000011111010000 !
b100000001000011111010000 !
b100000000000011111010000 !
b100000000000001111010000 !
b100001000000001111010000 !
b100001000000000111010000 !
b110001000000000111010000 !
b110001000000000011010000 !
b110001000000000010010000 !
b1000110001000000000010010000 !
b1000110001100000000010010000 !
b1010110001100000000010010000 !
b1010110001100000000010011000 !
b1010110001100000000000011000 !
0c
1O!
1N!
1E!
1B!
1J!
1G!
1\
1b!
1a!
0_!
0^!
0]!
0\!
0[!
0Z!
0P!
0F!
0K!
1t
1s
0q
0p
0o
0n
0m
0l
11
10
0.
0-
0,
0+
0*
0)
0Q!
0T!
0R!
0h
0e
0d
0W
0X
0[
#80000
b1 #
b0 #
b1010111001100000000000011000 !
b1001010111001100000000000011000 !
b1001011111001100000000000011000 !
b1001011111001100001000000011000 !
b1001011111001100001000000011010 !
b11001011111001100001000000011010 !
b11001011111011100001000000011010 !
b11001011111011100101000000011010 !
b11011011111011100101000000011010 !
b11011011111011100101000000001010 !
b11011011111011100101100000001010 !
b11011011011011100101100000001010 !
b11011011011011101101100000001010 !
b11011011011011101101110000001010 !
b11011011011010101101110000001010 !
b11011011011010101101111000001010 !
b11011011001010101101111000001010 !
b11011001001010101101111000001010 !
b11011001001010101101111010001010 !
1c
0N!
1M!
1D!
0E!
0B!
1H!
0J!
1>!
1@!
1=!
0e!
0d!
0\
1U!
0a!
1^!
1\!
1[!
1Z!
1Y!
1W!
0A!
1f
0s
1p
1n
1m
1l
1k
1i
1Z
00
1-
1+
1*
1)
1(
1&
1g!
0["
0Z"
0Y"
0X"
0W"
0V"
0U"
0T"
0S"
0R"
0Q"
0P"
0O"
0N"
0M"
0L"
1w
0;!
0:!
09!
08!
07!
06!
05!
04!
03!
02!
01!
00!
0/!
0.!
0-!
0,!
14
0V
0U
0T
0S
0R
0Q
0P
0O
0N
0M
0L
0K
0J
0I
0H
0G
#85000
b11011101001010101101111010001010 !
b11011101001010101111111010001010 !
b11011101001110101111111010001010 !
b11011101001110101111111110001010 !
b11011101001110101111111111001010 !
b11011101001110001111111111001010 !
b11011100001110001111111111001010 !
b1011100001110001111111111001010 !
b1001100001110001111111111001010 !
b1001100001110001111011111001010 !
b1001100101110001111011111001010 !
b1001100111110001111011111001010 !
0O!
1C!
1E!
1B!
0H!
1I!
0>!
0=!
1\
1_!
1]!
0Z!
1X!
1q
1o
0l
1j
1.
1,
0)
1'
