simulation/qsim/arp.msim.vcd
$comment
	File created using the following command:
		vcd file arp.msim.vcd -direction
$end
$date
	Thu Jul 21 01:32:34 2022
$end
$version
	ModelSim Version 10.1d
$end
$timescale
	1ps
$end
$scope module ramdac_vlg_vec_tst $end
$var reg 1 ! CLK $end
$var wire 1 " HDBG [15] $end
$var wire 1 # HDBG [14] $end
$var wire 1 $ HDBG [13] $end
$var wire 1 % HDBG [12] $end
$var wire 1 & HDBG [11] $end
$var wire 1 ' HDBG [10] $end
$var wire 1 ( HDBG [9] $end
$var wire 1 ) HDBG [8] $end
$var wire 1 * HDBG [7] $end
$var wire 1 + HDBG [6] $end
$var wire 1 , HDBG [5] $end
$var wire 1 - HDBG [4] $end
$var wire 1 . HDBG [3] $end
$var wire 1 / HDBG [2] $end
$var wire 1 0 HDBG [1] $end
$var wire 1 1 HDBG [0] $end
$var wire 1 2 VDBG [15] $end
$var wire 1 3 VDBG [14] $end
$var wire 1 4 VDBG [13] $end
$var wire 1 5 VDBG [12] $end
$var wire 1 6 VDBG [11] $end
$var wire 1 7 VDBG [10] $end
$var wire 1 8 VDBG [9] $end
$var wire 1 9 VDBG [8] $end
$var wire 1 : VDBG [7] $end
$var wire 1 ; VDBG [6] $end
$var wire 1 < VDBG [5] $end
$var wire 1 = VDBG [4] $end
$var wire 1 > VDBG [3] $end
$var wire 1 ? VDBG [2] $end
$var wire 1 @ VDBG [1] $end
$var wire 1 A VDBG [0] $end
$var wire 1 B VGA_B [3] $end
$var wire 1 C VGA_B [2] $end
$var wire 1 D VGA_B [1] $end
$var wire 1 E VGA_B [0] $end
$var wire 1 F VGA_G [3] $end
$var wire 1 G VGA_G [2] $end
$var wire 1 H VGA_G [1] $end
$var wire 1 I VGA_G [0] $end
$var wire 1 J VGA_HS $end
$var wire 1 K VGA_R [3] $end
$var wire 1 L VGA_R [2] $end
$var wire 1 M VGA_R [1] $end
$var wire 1 N VGA_R [0] $end
$var wire 1 O VGA_VS $end
$var wire 1 P sampler $end
$scope module i1 $end
$var wire 1 Q gnd $end
$var wire 1 R vcc $end
$var wire 1 S unknown $end
$var tri1 1 T devclrn $end
$var tri1 1 U devpor $end
$var tri1 1 V devoe $end
$var wire 1 W VGA_B[3]~output_o $end
$var wire 1 X VGA_B[2]~output_o $end
$var wire 1 Y VGA_B[1]~output_o $end
$var wire 1 Z VGA_B[0]~output_o $end
$var wire 1 [ VGA_G[3]~output_o $end
$var wire 1 \ VGA_G[2]~output_o $end
$var wire 1 ] VGA_G[1]~output_o $end
$var wire 1 ^ VGA_G[0]~output_o $end
$var wire 1 _ VGA_R[3]~output_o $end
$var wire 1 ` VGA_R[2]~output_o $end
$var wire 1 a VGA_R[1]~output_o $end
$var wire 1 b VGA_R[0]~output_o $end
$var wire 1 c VGA_VS~output_o $end
$var wire 1 d VGA_HS~output_o $end
$var wire 1 e HDBG[15]~output_o $end
$var wire 1 f HDBG[14]~output_o $end
$var wire 1 g HDBG[13]~output_o $end
$var wire 1 h HDBG[12]~output_o $end
$var wire 1 i HDBG[11]~output_o $end
$var wire 1 j HDBG[10]~output_o $end
$var wire 1 k HDBG[9]~output_o $end
$var wire 1 l HDBG[8]~output_o $end
$var wire 1 m HDBG[7]~output_o $end
$var wire 1 n HDBG[6]~output_o $end
$var wire 1 o HDBG[5]~output_o $end
$var wire 1 p HDBG[4]~output_o $end
$var wire 1 q HDBG[3]~output_o $end
$var wire 1 r HDBG[2]~output_o $end
$var wire 1 s HDBG[1]~output_o $end
$var wire 1 t HDBG[0]~output_o $end
$var wire 1 u VDBG[15]~output_o $end
$var wire 1 v VDBG[14]~output_o $end
$var wire 1 w VDBG[13]~output_o $end
$var wire 1 x VDBG[12]~output_o $end
$var wire 1 y VDBG[11]~output_o $end
$var wire 1 z VDBG[10]~output_o $end
$var wire 1 { VDBG[9]~output_o $end
$var wire 1 | VDBG[8]~output_o $end
$var wire 1 } VDBG[7]~output_o $end
$var wire 1 ~ VDBG[6]~output_o $end
$var wire 1 !! VDBG[5]~output_o $end
$var wire 1 "! VDBG[4]~output_o $end
$var wire 1 #! VDBG[3]~output_o $end
$var wire 1 $! VDBG[2]~output_o $end
$var wire 1 %! VDBG[1]~output_o $end
$var wire 1 &! VDBG[0]~output_o $end
$var wire 1 '! CLK~input_o $end
$var wire 1 (! CLK~inputclkctrl_outclk $end
$var wire 1 )! inst5|inst|inst~0_combout $end
$var wire 1 *! inst5|inst|inst~q $end
$var wire 1 +! inst5|inst5|inst~0_combout $end
$var wire 1 ,! inst5|inst5|inst~q $end
$var wire 1 -! inst5|inst6|inst~0_combout $end
$var wire 1 .! inst5|inst6|inst~q $end
$var wire 1 /! inst5|inst5|inst12~0_combout $end
$var wire 1 0! inst5|inst7|inst~0_combout $end
$var wire 1 1! inst5|inst7|inst~q $end
$var wire 1 2! inst5|inst7|inst12~0_combout $end
$var wire 1 3! inst5|inst8|inst~0_combout $end
$var wire 1 4! inst5|inst8|inst~q $end
$var wire 1 5! inst5|inst10|inst~0_combout $end
$var wire 1 6! inst5|inst10|inst~q $end
$var wire 1 7! inst8|inst2|inst22~1_combout $end
$var wire 1 8! inst5|inst10|inst12~0_combout $end
$var wire 1 9! inst5|inst10|inst12~combout $end
$var wire 1 :! inst5|inst9|inst~0_combout $end
$var wire 1 ;! inst5|inst9|inst~q $end
$var wire 1 <! inst5|inst11|inst~0_combout $end
$var wire 1 =! inst5|inst11|inst~q $end
$var wire 1 >! inst5|inst12|inst~0_combout $end
$var wire 1 ?! inst5|inst12|inst~q $end
$var wire 1 @! inst5|inst12|inst12~combout $end
$var wire 1 A! inst5|inst13|inst~0_combout $end
$var wire 1 B! inst5|inst13|inst~q $end
$var wire 1 C! inst8|inst2|inst22~0_combout $end
$var wire 1 D! inst5|inst14|inst~0_combout $end
$var wire 1 E! inst5|inst14|inst~q $end
$var wire 1 F! inst8|inst2|inst22~2_combout $end
$var wire 1 G! inst8|inst2|inst22~3_combout $end
$var wire 1 H! inst10~1_combout $end
$var wire 1 I! inst10~2_combout $end
$var wire 1 J! inst12~1_combout $end
$var wire 1 K! inst12~2_combout $end
$var wire 1 L! inst12~4_combout $end
$var wire 1 M! inst10~0_combout $end
$var wire 1 N! inst10~3_combout $end
$var wire 1 O! inst10~q $end
$var wire 1 P! inst27|inst7|inst12~0_combout $end
$var wire 1 Q! inst27|inst7|inst~0_combout $end
$var wire 1 R! inst27|inst7|inst~q $end
$var wire 1 S! inst27|inst8|inst~0_combout $end
$var wire 1 T! inst27|inst8|inst~q $end
$var wire 1 U! inst27|inst10|inst~0_combout $end
$var wire 1 V! inst27|inst10|inst~q $end
$var wire 1 W! inst27|inst10|inst12~combout $end
$var wire 1 X! inst27|inst9|inst~0_combout $end
$var wire 1 Y! inst27|inst9|inst~q $end
$var wire 1 Z! inst27|inst11|inst~0_combout $end
$var wire 1 [! inst27|inst11|inst~q $end
$var wire 1 \! inst27|inst12|inst~0_combout $end
$var wire 1 ]! inst27|inst12|inst~q $end
$var wire 1 ^! inst27|inst13|inst~0_combout $end
$var wire 1 _! inst27|inst13|inst~1_combout $end
$var wire 1 `! inst27|inst13|inst~q $end
$var wire 1 a! inst19|inst2|inst22~0_combout $end
$var wire 1 b! inst21~0_combout $end
$var wire 1 c! inst19|inst2|inst22~1_combout $end
$var wire 1 d! inst27|inst|inst~0_combout $end
$var wire 1 e! inst27|inst|inst~q $end
$var wire 1 f! inst27|inst5|inst~0_combout $end
$var wire 1 g! inst27|inst5|inst~q $end
$var wire 1 h! inst27|inst6|inst~0_combout $end
$var wire 1 i! inst27|inst6|inst~q $end
$var wire 1 j! inst23~0_combout $end
$var wire 1 k! inst21~3_combout $end
$var wire 1 l! inst21~4_combout $end
$var wire 1 m! inst21~1_combout $end
$var wire 1 n! inst21~2_combout $end
$var wire 1 o! inst21~5_combout $end
$var wire 1 p! inst21~q $end
$var wire 1 q! inst30~combout $end
$var wire 1 r! inst23~3_combout $end
$var wire 1 s! inst23~1_combout $end
$var wire 1 t! inst23~2_combout $end
$var wire 1 u! inst23~4_combout $end
$var wire 1 v! inst23~q $end
$var wire 1 w! inst12~0_combout $end
$var wire 1 x! inst12~3_combout $end
$var wire 1 y! inst12~5_combout $end
$var wire 1 z! inst12~q $end
$upscope $end
$upscope $end
$enddefinitions $end
#0
$dumpvars
0!
x1
x0
x/
x.
x-
x,
x+
x*
x)
x(
x'
0&
0%
0$
0#
0"
xA
x@
x?
x>
x=
x<
x;
x:
x9
x8
07
06
05
04
03
02
xE
xD
xC
xB
xI
xH
xG
xF
xJ
xN
xM
xL
xK
xO
xP
0Q
1R
xS
1T
1U
1V
xW
xX
xY
xZ
x[
x\
x]
x^
x_
x`
xa
xb
xc
xd
0e
0f
0g
0h
0i
xj
xk
xl
xm
xn
xo
xp
xq
xr
xs
xt
0u
0v
0w
0x
0y
0z
x{
x|
x}
x~
x!!
x"!
x#!
x$!
x%!
x&!
0'!
x(!
x)!
0*!
x+!
0,!
x-!
0.!
x/!
x0!
01!
02!
x3!
04!
x5!
06!
x7!
08!
x9!
x:!
0;!
x<!
0=!
x>!
0?!
x@!
xA!
0B!
xC!
xD!
0E!
xF!
xG!
xH!
xI!
xJ!
xK!
xL!
xM!
xN!
0O!
xP!
xQ!
0R!
xS!
0T!
xU!
0V!
xW!
xX!
0Y!
xZ!
0[!
x\!
0]!
x^!
x_!
0`!
xa!
xb!
xc!
xd!
0e!
xf!
0g!
xh!
0i!
xj!
xk!
xl!
xm!
xn!
xo!
0p!
xq!
xr!
xs!
xt!
xu!
0v!
xw!
xx!
xy!
0z!
$end
#145
0(!
#462
05!
#465
03!
#467
17!
#468
0j!
#561
1r!
#568
0F!
#607
0s!
#649
0h!
#663
0K!
#668
0^!
#684
0t!
#693
0\!
#701
0f!
#722
0S!
#723
1C!
#725
0U!
#726
1w!
#729
0a!
0@!
#736
1l!
#801
0J!
#810
0P!
#818
0G!
#823
1b!
#837
0x!
#842
1)!
#843
1H!
#847
0/!
#851
0L!
#856
0>!
#874
09!
#875
0<!
0c!
#887
0M!
#951
1k!
#960
0W!
#989
0_!
#991
0D!
#1005
0u!
#1036
0Z!
#1060
0A!
#1066
0q!
#1121
0-!
#1135
1m!
#1223
0:!
#1280
00!
#1284
0y!
#1310
1I!
0X!
#1346
0+!
#1353
0d!
#1448
1n!
#1488
0Q!
#1752
1o!
#2041
1N!
#2572
0n
0+
#2580
0o
0,
#2599
0q
0.
#2600
0s
00
#2602
0p
0-
#2610
0&!
0A
#2631
0r
0/
#2747
1c
1O
#2765
0k
0(
#2813
0"!
0=
#2827
0{
08
#2836
1d
1J
#2840
0!!
0<
#2845
0m
0*
#2846
0l
0)
#2873
0}
0:
#2878
0|
09
#3011
0~
0;
#3046
0%!
0@
#3068
0t
01
#3267
0#!
0>
#3388
0j
0'
#3884
zZ
zE
#3890
zW
zB
#3900
zb
za
zN
zM
#3910
z]
zY
zH
zD
#4125
z`
z^
z\
zX
zL
zI
zG
zC
#4133
z[
zF
#4143
z_
zK
#4192
0$!
0?
#10000
1!
0P
#10775
1'!
#10938
1(!
#12634
1*!
#12999
1p!
#13001
1O!
#13410
0)!
#13844
1M!
#13876
0I!
#13905
1+!
#13933
1q!
#15728
1t
11
#16765
1W
1B
#16774
1Z
1E
#16775
1b
1a
1N
1M
#16785
1]
1Y
1H
1D
#16989
1`
1^
1\
1X
1L
1I
1G
1C
#16999
1[
1F
#17009
1_
1K
#20000
0!
1P
#20936
0'!
#21081
0(!
#30000
1!
0P
#30775
1'!
#30938
1(!
#32634
0*!
1,!
#33003
0+!
#33407
0H!
#33476
1)!
#33968
1+!
#35262
1s
10
#35702
0t
01
#40000
0!
1P
#40936
0'!
#41081
0(!
#50000
1!
0P
#50775
1'!
#50938
1(!
#52634
1*!
#53410
0)!
#53418
1/!
#53672
1-!
#53917
0+!
#55728
1t
11
#60000
0!
1P
#60936
0'!
#61081
0(!
#70000
1!
0P
#70775
1'!
#70938
1(!
#72634
0*!
0,!
1.!
#72987
1+!
#73476
1)!
#73481
0/!
#73980
0+!
#75234
0s
00
#75278
1r
1/
#75702
0t
01
#80000
0!
1P
#80936
0'!
#81081
0(!
#90000
1!
0P
#90775
1'!
#90938
1(!
#92634
1*!
#93410
0)!
#93905
1+!
#95728
1t
11
#100000
0!
1P
#100936
0'!
#101081
0(!
#110000
1!
0P
#110775
1'!
#110938
1(!
#112634
0*!
1,!
#113003
0+!
#113476
1)!
#113968
1+!
#115262
1s
10
#115702
0t
01
#120000
0!
1P
#120936
0'!
#121081
0(!
#130000
1!
0P
#130775
1'!
#130938
1(!
#132634
1*!
#132987
12!
#133410
0)!
#133418
1/!
#133684
0-!
#133917
0+!
#133984
10!
#135728
1t
11
#140000
0!
1P
#140936
0'!
#141081
0(!
#150000
1!
0P
#150775
1'!
#150938
1(!
#152633
11!
#152634
0*!
0,!
0.!
#152987
1+!
#153002
00!
#153003
02!
#153476
1)!
#153481
0/!
#153902
10!
#153980
0+!
#155234
0s
00
#155257
1q
1.
#155265
0r
0/
#155702
0t
01
#160000
0!
1P
#160936
0'!
#161081
0(!
#170000
1!
0P
#170775
1'!
#170938
1(!
#172634
1*!
#173410
0)!
#173905
1+!
#175728
1t
11
#180000
0!
1P
#180936
0'!
#181081
0(!
#190000
1!
0P
#190775
1'!
#190938
1(!
#192634
0*!
1,!
#193003
0+!
#193476
1)!
#193968
1+!
#195262
1s
10
#195702
0t
01
#200000
0!
1P
#200936
0'!
#201081
0(!
#210000
1!
0P
#210775
1'!
#210938
1(!
#212634
1*!
#213410
0)!
#213418
1/!
#213672
1-!
#213917
0+!
#215728
1t
11
#220000
0!
1P
#220936
0'!
#221081
0(!
#230000
1!
0P
#230775
1'!
#230938
1(!
#232634
0*!
0,!
1.!
#232987
1+!
#233476
1)!
#233481
0/!
#233980
0+!
#235234
0s
00
#235278
1r
1/
#235702
0t
01
#240000
0!
1P
#240936
0'!
#241081
0(!
#250000
1!
0P
#250775
1'!
#250938
1(!
#252634
1*!
#253410
0)!
#253905
1+!
#255728
1t
11
#260000
0!
1P
#260936
0'!
#261081
0(!
#270000
1!
0P
#270775
1'!
#270938
1(!
#272634
0*!
1,!
#273003
0+!
#273476
1)!
#273968
1+!
#275262
1s
10
#275702
0t
01
#280000
0!
1P
#280936
0'!
#281081
0(!
#290000
1!
0P
#290775
1'!
#290938
1(!
#292634
1*!
#292987
12!
#293410
0)!
#293418
1/!
#293441
13!
#293684
0-!
#293917
0+!
#293992
00!
#295728
1t
11
#300000
0!
1P
#300936
0'!
#301081
0(!
#310000
1!
0P
#310775
1'!
#310938
1(!
#312633
01!
#312634
0*!
0,!
0.!
14!
#312986
10!
#312987
1+!
#313003
03!
02!
#313019
07!
#313469
13!
#313476
1)!
#313477
1H!
#313481
0/!
#313914
00!
#313980
0+!
#315232
0q
0.
#315234
0s
00
#315260
1p
1-
#315265
0r
0/
#315702
0t
01
#320000
0!
1P
#320936
0'!
#321081
0(!
#330000
1!
0P
#330775
1'!
#330938
1(!
#332634
1*!
#333410
0)!
#333905
1+!
#335728
1t
11
#340000
0!
1P
#340936
0'!
#341081
0(!
#350000
1!
0P
#350775
1'!
#350938
1(!
#352634
0*!
1,!
#353003
0+!
#353407
0H!
#353476
1)!
#353968
1+!
#355262
1s
10
#355702
0t
01
#360000
0!
1P
#360936
0'!
#361081
0(!
#370000
1!
0P
#370775
1'!
#370938
1(!
#372634
1*!
#373410
0)!
#373418
1/!
#373672
1-!
#373917
0+!
#375728
1t
11
#380000
0!
1P
#380936
0'!
#381081
0(!
#390000
1!
0P
#390775
1'!
#390938
1(!
#392634
0*!
0,!
1.!
#392987
18!
1+!
#393297
08!
#393476
1)!
#393481
0/!
#393980
0+!
#395234
0s
00
#395278
1r
1/
#395702
0t
01
#400000
0!
1P
#400936
0'!
#401081
0(!
#410000
1!
0P
#410775
1'!
#410938
1(!
#412634
1*!
#413410
0)!
#413905
1+!
#415728
1t
11
#420000
0!
1P
#420936
0'!
#421081
0(!
#430000
1!
0P
#430775
1'!
#430938
1(!
#432634
0*!
1,!
#433003
0+!
#433476
1)!
#433968
1+!
#435262
1s
10
#435702
0t
01
#440000
0!
1P
#440936
0'!
#441081
0(!
#450000
1!
0P
#450775
1'!
#450938
1(!
#452634
1*!
#452987
12!
#453205
18!
#453410
0)!
#453418
1/!
#453684
0-!
#453917
0+!
#453984
10!
#455728
1t
11
#460000
0!
1P
#460936
0'!
#461081
0(!
#470000
1!
0P
#470775
1'!
#470938
1(!
#472633
11!
#472634
0*!
0,!
0.!
#472987
1+!
#473002
00!
#473003
08!
02!
#473476
1)!
#473481
0/!
#473902
10!
#473980
0+!
#475234
0s
00
#475257
1q
1.
#475265
0r
0/
#475702
0t
01
#480000
0!
1P
#480936
0'!
#481081
0(!
#490000
1!
0P
#490775
1'!
#490938
1(!
#492634
1*!
#493410
0)!
#493905
1+!
#495728
1t
11
#500000
0!
1P
#500936
0'!
#501081
0(!
#510000
1!
0P
#510775
1'!
#510938
1(!
#512634
0*!
1,!
#513003
0+!
#513476
1)!
#513968
1+!
#515262
1s
10
#515702
0t
01
#520000
0!
1P
#520936
0'!
#521081
0(!
#530000
1!
0P
#530775
1'!
#530938
1(!
#532634
1*!
#533410
0)!
#533418
1/!
#533672
1-!
#533917
0+!
#535728
1t
11
#540000
0!
1P
#540936
0'!
#541081
0(!
#550000
1!
0P
#550775
1'!
#550938
1(!
#552634
0*!
0,!
1.!
#552987
18!
1+!
#553297
08!
#553476
1)!
#553481
0/!
#553980
0+!
#555234
0s
00
#555278
1r
1/
#555702
0t
01
#560000
0!
1P
#560936
0'!
#561081
0(!
#570000
1!
0P
#570775
1'!
#570938
1(!
#572634
1*!
#573410
0)!
#573905
1+!
#575728
1t
11
#580000
0!
1P
#580936
0'!
#581081
0(!
#590000
1!
0P
#590775
1'!
#590938
1(!
#592634
0*!
1,!
#593003
0+!
#593476
1)!
#593968
1+!
#595262
1s
10
#595702
0t
01
#600000
0!
1P
#600936
0'!
#601081
0(!
#610000
1!
0P
#610775
1'!
#610938
1(!
#612634
1*!
#612987
12!
#613205
18!
#613410
0)!
#613418
1/!
#613431
03!
#613439
15!
#613684
0-!
#613917
0+!
#613992
00!
#615728
1t
11
#620000
0!
1P
#620936
0'!
#621081
0(!
#630000
1!
0P
#630775
1'!
#630938
1(!
#632633
01!
#632634
0*!
0,!
0.!
04!
16!
#632986
10!
#632987
13!
1+!
#633003
05!
08!
02!
#633425
19!
#633473
03!
#633475
15!
#633476
1)!
#633477
1H!
#633481
0/!
#633749
1:!
#633781
09!
#633914
00!
#633980
0+!
#634130
0:!
#635232
0q
0.
#635234
0s
1o
00
1,
#635236
0p
0-
#635265
0r
0/
#635702
0t
01
#640000
0!
1P
#640936
0'!
#641081
0(!
#650000
1!
0P
#650775
1'!
#650938
1(!
#652634
1*!
#653410
0)!
#653905
1+!
#655728
1t
11
#660000
0!
1P
#660936
0'!
#661081
0(!
#670000
1!
0P
#670775
1'!
#670938
1(!
#672634
0*!
1,!
#673003
0+!
#673407
0H!
#673476
1)!
#673968
1+!
#675262
1s
10
#675702
0t
01
#680000
0!
1P
#680936
0'!
#681081
0(!
#690000
1!
0P
#690775
1'!
#690938
1(!
#692634
1*!
#693410
0)!
#693418
1/!
#693672
1-!
#693917
0+!
#695728
1t
11
#700000
0!
1P
#700936
0'!
#701081
0(!
#710000
1!
0P
#710775
1'!
#710938
1(!
#712634
0*!
0,!
1.!
#712987
1+!
#713476
1)!
#713481
0/!
#713980
0+!
#715234
0s
00
#715278
1r
1/
#715702
0t
01
#720000
0!
1P
#720936
0'!
#721081
0(!
#730000
1!
0P
#730775
1'!
#730938
1(!
#732634
1*!
#733410
0)!
#733905
1+!
#735728
1t
11
#740000
0!
1P
#740936
0'!
#741081
0(!
#750000
1!
0P
#750775
1'!
#750938
1(!
#752634
0*!
1,!
#753003
0+!
#753476
1)!
#753968
1+!
#755262
1s
10
#755702
0t
01
#760000
0!
1P
#760936
0'!
#761081
0(!
#770000
1!
0P
#770775
1'!
#770938
1(!
#772634
1*!
#772987
12!
#773410
0)!
#773418
1/!
#773684
0-!
#773917
0+!
#773984
10!
#775728
1t
11
#780000
0!
1P
#780936
0'!
#781081
0(!
#790000
1!
0P
#790775
1'!
#790938
1(!
#792633
11!
#792634
0*!
0,!
0.!
#792987
1+!
#793002
00!
#793003
02!
#793476
1)!
#793481
0/!
#793902
10!
#793980
0+!
#795234
0s
00
#795257
1q
1.
#795265
0r
0/
#795702
0t
01
#800000
0!
1P
#800936
0'!
#801081
0(!
#810000
1!
0P
#810775
1'!
#810938
1(!
#812634
1*!
#813410
0)!
#813905
1+!
#815728
1t
11
#820000
0!
1P
#820936
0'!
#821081
0(!
#830000
1!
0P
#830775
1'!
#830938
1(!
#832634
0*!
1,!
#833003
0+!
#833476
1)!
#833968
1+!
#835262
1s
10
#835702
0t
01
#840000
0!
1P
#840936
0'!
#841081
0(!
#850000
1!
0P
#850775
1'!
#850938
1(!
#852634
1*!
#853410
0)!
#853418
1/!
#853672
1-!
#853917
0+!
#855728
1t
11
#860000
0!
1P
#860936
0'!
#861081
0(!
#870000
1!
0P
#870775
1'!
#870938
1(!
#872634
0*!
0,!
1.!
#872987
1+!
#873476
1)!
#873481
0/!
#873980
0+!
#875234
0s
00
#875278
1r
1/
#875702
0t
01
#880000
0!
1P
#880936
0'!
#881081
0(!
#890000
1!
0P
#890775
1'!
#890938
1(!
#892634
1*!
#893410
0)!
#893905
1+!
#895728
1t
11
#900000
0!
1P
#900936
0'!
#901081
0(!
#910000
1!
0P
#910775
1'!
#910938
1(!
#912634
0*!
1,!
#913003
0+!
#913476
1)!
#913968
1+!
#915262
1s
10
#915702
0t
01
#920000
0!
1P
#920936
0'!
#921081
0(!
#930000
1!
0P
#930775
1'!
#930938
1(!
#932634
1*!
#932987
12!
#933410
0)!
#933418
1/!
#933441
13!
#933684
0-!
#933917
0+!
#933992
00!
#935728
1t
11
#940000
0!
1P
#940936
0'!
#941081
0(!
#950000
1!
0P
#950775
1'!
#950938
1(!
#952633
01!
#952634
0*!
0,!
0.!
14!
#952986
10!
#952987
1+!
#953003
03!
02!
#953469
13!
#953476
1)!
#953477
1H!
#953481
0/!
#953914
00!
#953980
0+!
#955232
0q
0.
#955234
0s
00
#955260
1p
1-
#955265
0r
0/
#955702
0t
01
#960000
0!
1P
#960936
0'!
#961081
0(!
#970000
1!
0P
#970775
1'!
#970938
1(!
#972634
1*!
#973410
0)!
#973905
1+!
#975728
1t
11
#980000
0!
1P
#980936
0'!
#981081
0(!
#990000
1!
0P
#990775
1'!
#990938
1(!
#992634
0*!
1,!
#993003
0+!
#993407
0H!
#993476
1)!
#993968
1+!
#995262
1s
10
#995702
0t
01
#1000000
0!
1P
#1000936
0'!
#1001081
0(!
#1010000
1!
0P
#1010775
1'!
#1010938
1(!
#1012634
1*!
#1013410
0)!
#1013418
1/!
#1013672
1-!
#1013917
0+!
#1015728
1t
11
#1020000
0!
1P
#1020936
0'!
#1021081
0(!
#1030000
1!
0P
#1030775
1'!
#1030938
1(!
#1032634
0*!
0,!
1.!
#1032987
18!
1+!
#1033297
08!
#1033476
1)!
#1033481
0/!
#1033980
0+!
#1035234
0s
00
#1035278
1r
1/
#1035702
0t
01
#1040000
0!
1P
#1040936
0'!
#1041081
0(!
#1050000
1!
0P
#1050775
1'!
#1050938
1(!
#1052634
1*!
#1053410
0)!
#1053905
1+!
#1055728
1t
11
#1060000
0!
1P
#1060936
0'!
#1061081
0(!
#1070000
1!
0P
#1070775
1'!
#1070938
1(!
#1072634
0*!
1,!
#1073003
0+!
#1073476
1)!
#1073968
1+!
#1075262
1s
10
#1075702
0t
01
#1080000
0!
1P
#1080936
0'!
#1081081
0(!
#1090000
1!
0P
#1090775
1'!
#1090938
1(!
#1092634
1*!
#1092987
12!
#1093205
18!
#1093410
0)!
#1093418
1/!
#1093684
0-!
#1093917
0+!
#1093984
10!
#1095728
1t
11
#1100000
0!
1P
#1100936
0'!
#1101081
0(!
#1110000
1!
0P
#1110775
1'!
#1110938
1(!
#1112633
11!
#1112634
0*!
0,!
0.!
#1112987
1+!
#1113002
00!
#1113003
08!
02!
#1113476
1)!
#1113481
0/!
#1113902
10!
#1113980
0+!
#1115234
0s
00
#1115257
1q
1.
#1115265
0r
0/
#1115702
0t
01
#1120000
0!
1P
#1120936
0'!
#1121081
0(!
#1130000
1!
0P
#1130775
1'!
#1130938
1(!
#1132634
1*!
#1133410
0)!
#1133905
1+!
#1135728
1t
11
#1140000
0!
1P
#1140936
0'!
#1141081
0(!
#1150000
1!
0P
#1150775
1'!
#1150938
1(!
#1152634
0*!
1,!
#1153003
0+!
#1153476
1)!
#1153968
1+!
#1155262
1s
10
#1155702
0t
01
#1160000
0!
1P
#1160936
0'!
#1161081
0(!
#1170000
1!
0P
#1170775
1'!
#1170938
1(!
#1172634
1*!
#1173410
0)!
#1173418
1/!
#1173672
1-!
#1173917
0+!
#1175728
1t
11
#1180000
0!
1P
#1180936
0'!
#1181081
0(!
#1190000
1!
0P
#1190775
1'!
#1190938
1(!
#1192634
0*!
0,!
1.!
#1192987
18!
1+!
#1193297
08!
#1193476
1)!
#1193481
0/!
#1193980
0+!
#1195234
0s
00
#1195278
1r
1/
#1195702
0t
01
#1200000
0!
1P
#1200936
0'!
#1201081
0(!
#1210000
1!
0P
#1210775
1'!
#1210938
1(!
#1212634
1*!
#1213410
0)!
#1213905
1+!
#1215728
1t
11
#1220000
0!
1P
#1220936
0'!
#1221081
0(!
#1230000
1!
0P
#1230775
1'!
#1230938
1(!
#1232634
0*!
1,!
#1233003
0+!
#1233476
1)!
#1233968
1+!
#1235262
1s
10
#1235702
0t
01
#1240000
0!
1P
#1240936
0'!
#1241081
0(!
#1250000
1!
0P
#1250775
1'!
#1250938
1(!
#1252634
1*!
#1252987
12!
#1253205
18!
#1253410
0)!
#1253418
1/!
#1253429
05!
#1253431
03!
#1253684
0-!
#1253917
0+!
#1253992
00!
#1254020
19!
#1254344
1:!
#1255728
1t
11
#1260000
0!
1P
#1260936
0'!
#1261081
0(!
#1270000
1!
0P
#1270775
1'!
#1270938
1(!
#1272633
01!
#1272634
0*!
0,!
0.!
04!
06!
#1272635
1;!
#1272986
10!
#1272987
15!
13!
1+!
#1273003
08!
02!
#1273004
0:!
#1273101
17!
#1273113
0C!
#1273430
1<!
#1273465
05!
#1273473
03!
#1273476
1)!
#1273477
1H!
#1273481
0/!
#1273508
09!
#1273858
0<!
#1273867
1:!
#1273914
00!
#1273980
0+!
#1275214
0o
0,
#1275225
1n
1+
#1275232
0q
0.
#1275234
0s
00
#1275236
0p
0-
#1275265
0r
0/
#1275702
0t
01
#1280000
0!
1P
#1280936
0'!
#1281081
0(!
#1290000
1!
0P
#1290775
1'!
#1290938
1(!
#1292634
1*!
#1293410
0)!
#1293905
1+!
#1295728
1t
11
#1300000
0!
1P
#1300936
0'!
#1301081
0(!
#1310000
1!
0P
#1310775
1'!
#1310938
1(!
#1312634
0*!
1,!
#1313003
0+!
#1313407
0H!
#1313476
1)!
#1313968
1+!
#1315262
1s
10
#1315702
0t
01
#1320000
0!
1P
#1320936
0'!
#1321081
0(!
#1330000
1!
0P
#1330775
1'!
#1330938
1(!
#1332634
1*!
#1333410
0)!
#1333418
1/!
#1333672
1-!
#1333917
0+!
#1335728
1t
11
#1340000
0!
1P
#1340936
0'!
#1341081
0(!
#1350000
1!
0P
#1350775
1'!
#1350938
1(!
#1352634
0*!
0,!
1.!
#1352987
1+!
#1353476
1)!
#1353481
0/!
#1353980
0+!
#1355234
0s
00
#1355278
1r
1/
#1355702
0t
01
#1360000
0!
1P
#1360936
0'!
#1361081
0(!
#1370000
1!
0P
#1370775
1'!
#1370938
1(!
#1372634
1*!
#1373410
0)!
#1373905
1+!
#1375728
1t
11
#1380000
0!
1P
#1380936
0'!
#1381081
0(!
#1390000
1!
0P
#1390775
1'!
#1390938
1(!
#1392634
0*!
1,!
#1393003
0+!
#1393476
1)!
#1393968
1+!
#1395262
1s
10
#1395702
0t
01
#1400000
0!
1P
#1400936
0'!
#1401081
0(!
#1410000
1!
0P
#1410775
1'!
#1410938
1(!
#1412634
1*!
#1412987
12!
#1413410
0)!
#1413418
1/!
#1413684
0-!
#1413917
0+!
#1413984
10!
#1415728
1t
11
#1420000
0!
1P
#1420936
0'!
#1421081
0(!
#1430000
1!
0P
#1430775
1'!
#1430938
1(!
#1432633
11!
#1432634
0*!
0,!
0.!
#1432987
1+!
#1433002
00!
#1433003
02!
#1433476
1)!
#1433481
0/!
#1433902
10!
#1433980
0+!
#1435234
0s
00
#1435257
1q
1.
#1435265
0r
0/
#1435702
0t
01
#1440000
0!
1P
#1440936
0'!
#1441081
0(!
#1450000
1!
0P
#1450775
1'!
#1450938
1(!
#1452634
1*!
#1453410
0)!
#1453905
1+!
#1455728
1t
11
#1460000
0!
1P
#1460936
0'!
#1461081
0(!
#1470000
1!
0P
#1470775
1'!
#1470938
1(!
#1472634
0*!
1,!
#1473003
0+!
#1473476
1)!
#1473968
1+!
#1475262
1s
10
#1475702
0t
01
#1480000
0!
1P
#1480936
0'!
#1481081
0(!
#1490000
1!
0P
#1490775
1'!
#1490938
1(!
#1492634
1*!
#1493410
0)!
#1493418
1/!
#1493672
1-!
#1493917
0+!
#1495728
1t
11
#1500000
0!
1P
#1500936
0'!
#1501081
0(!
#1510000
1!
0P
#1510775
1'!
#1510938
1(!
#1512634
0*!
0,!
1.!
#1512987
1+!
#1513476
1)!
#1513481
0/!
#1513980
0+!
#1515234
0s
00
#1515278
1r
1/
#1515702
0t
01
#1520000
0!
1P
#1520936
0'!
#1521081
0(!
#1530000
1!
0P
#1530775
1'!
#1530938
1(!
